verilog/CPU/dump.vcd
$date
	Mon Feb 10 00:39:45 2025
$end
$version
	Icarus Verilog
$end
$timescale
	1ps
$end
$scope module CPUtb $end
$scope module mycpu $end
$scope module MA $end
$scope module data_memory $end
$var wire 1 ! clk $end
$upscope $end
$upscope $end
$upscope $end
$upscope $end
$scope module CPUtb $end
$scope module mycpu $end
$scope module MA $end
$scope module data_memory $end
$var wire 1 " reset $end
$upscope $end
$upscope $end
$upscope $end
$upscope $end
$scope module CPUtb $end
$scope module mycpu $end
$scope module MA $end
$scope module data_memory $end
$var wire 1 # mem_read $end
$upscope $end
$upscope $end
$upscope $end
$upscope $end
$scope module CPUtb $end
$scope module mycpu $end
$scope module MA $end
$scope module data_memory $end
$var wire 1 $ mem_write $end
$upscope $end
$upscope $end
$upscope $end
$upscope $end
$scope module CPUtb $end
$scope module mycpu $end
$scope module MA $end
$scope module data_memory $end
$var wire 32 % mem_address [31:0] $end
$upscope $end
$upscope $end
$upscope $end
$upscope $end
$scope module CPUtb $end
$scope module mycpu $end
$scope module MA $end
$scope module data_memory $end
$var wire 32 & data_in [31:0] $end
$upscope $end
$upscope $end
$upscope $end
$upscope $end
$scope module CPUtb $end
$scope module mycpu $end
$scope module MA $end
$scope module data_memory $end
$var reg 32 ' data_out [31:0] $end
$upscope $end
$upscope $end
$upscope $end
$upscope $end
$scope module CPUtb $end
$scope module mycpu $end
$scope module MA $end
$scope module data_memory $end
$var reg 1 ( busywait $end
$upscope $end
$upscope $end
$upscope $end
$upscope $end
$scope module CPUtb $end
$var reg 1 ! CLK $end
$var reg 1 ) reset $end
$var integer 32 * i [31:0] $end
$scope module mycpu $end
$var wire 1 ! CLK $end
$var wire 3 + Instruction_func3_ex [2:0] $end
$var wire 1 ) RESET $end
$var wire 1 , mem_read_enable_ex $end
$var wire 1 - mem_write_enable_ex $end
$var wire 1 " reset $end
$var wire 5 . write_reg_out_if [4:0] $end
$var wire 32 / write_data_out_if [31:0] $end
$var wire 1 0 regwrite_enable_wb $end
$var wire 1 1 regwrite_enable_ma $end
$var wire 1 2 regwrite_enable_ex_out $end
$var wire 1 3 regwrite_enable_ex $end
$var wire 1 4 reg_write_enable_out_if $end
$var wire 1 5 reg_write_enable_id $end
$var wire 32 6 read_data_wb [31:0] $end
$var wire 32 7 read_data_ma [31:0] $end
$var wire 5 8 rd_wb [4:0] $end
$var wire 5 9 rd_ma [4:0] $end
$var wire 32 : pc_out_if [31:0] $end
$var wire 32 ; pc_out_id [31:0] $end
$var wire 32 < pc4_out_if [31:0] $end
$var wire 32 = pc4_out_id [31:0] $end
$var wire 1 > mux3_select_wb $end
$var wire 1 ? mux3_select_ma $end
$var wire 1 @ mux3_select_id $end
$var wire 1 A mux3_select_ex_out $end
$var wire 1 B mux3_select_ex $end
$var wire 1 C mux2_select_id $end
$var wire 1 D mux2_select_ex $end
$var wire 1 E mux1_select_id $end
$var wire 1 F mux1_select_ex $end
$var wire 1 $ mem_write_ma $end
$var wire 1 G mem_write_enable_id $end
$var wire 1 # mem_read_ma $end
$var wire 1 H mem_read_enable_id $end
$var wire 1 I jump_id $end
$var wire 1 J jump_ex $end
$var wire 1 K jal_select_ex $end
$var wire 32 L instruction_out_ip [31:0] $end
$var wire 32 M instruction_out_if [31:0] $end
$var wire 32 N immidiate_value_id [31:0] $end
$var wire 3 O funct3_id [2:0] $end
$var wire 3 P func3_ma [2:0] $end
$var wire 5 Q destination_reg_ex_out [4:0] $end
$var wire 5 R destination_reg_ex [4:0] $end
$var wire 32 S data2_out_ex [31:0] $end
$var wire 32 T data2_id [31:0] $end
$var wire 32 U data2_ex [31:0] $end
$var wire 32 V data1_id [31:0] $end
$var wire 32 W data1_ex [31:0] $end
$var wire 1 X branch_id $end
$var wire 1 Y branch_ex $end
$var wire 1 Z branch_control_out_ex $end
$var wire 5 [ Rd_id [4:0] $end
$var wire 32 \ PC_ex [31:0] $end
$var wire 32 ] PC4_ex [31:0] $end
$var wire 1 ^ JAL_select_id $end
$var wire 32 _ Immediate_ex [31:0] $end
$var wire 32 ` DATA_2_ma [31:0] $end
$var wire 5 a ALU_select_ex [4:0] $end
$var wire 32 b ALU_result_ex [31:0] $end
$var wire 32 c ALU_out_wb [31:0] $end
$var wire 32 d ALU_out_ma [31:0] $end
$var wire 5 e ALU_opcode_id [4:0] $end
$var wire 32 f ALUD_ex [31:0] $end
$scope module EX $end
$var wire 32 g data2_out [31:0] $end
$var wire 3 h funct3 [2:0] $end
$var wire 3 i funct3_out [2:0] $end
$var wire 1 , memory_read_enable $end
$var wire 1 , memory_read_enable_out $end
$var wire 1 - memory_write_enable $end
$var wire 1 - memory_write_enable_out $end
$var wire 1 A mux3_select_out $end
$var wire 5 j rd_out [4:0] $end
$var wire 1 2 regwrite_enable_out $end
$var wire 1 3 regwrite_enable $end
$var wire 5 k rd [4:0] $end
$var wire 32 l pc4 [31:0] $end
$var wire 32 m pc [31:0] $end
$var wire 1 B mux3_select $end
$var wire 1 D mux2_select $end
$var wire 32 n mux2_out [31:0] $end
$var wire 1 F mux1_select $end
$var wire 32 o mux1_out [31:0] $end
$var wire 1 J jump $end
$var wire 1 K jal_select $end
$var wire 32 p immediate [31:0] $end
$var wire 32 q data2 [31:0] $end
$var wire 32 r data1 [31:0] $end
$var wire 1 Z branch_control_out $end
$var wire 1 Y branch $end
$var wire 5 s ALU_select [4:0] $end
$var wire 32 t ALU_result [31:0] $end
$var wire 32 u ALUD [31:0] $end
$scope module ALU_unit1 $end
$var wire 32 v data1 [31:0] $end
$var wire 32 w data2 [31:0] $end
$var wire 32 x result06 [31:0] $end
$var wire 32 y result18 [31:0] $end
$var wire 32 z result17 [31:0] $end
$var wire 32 { result16 [31:0] $end
$var wire 32 | result15 [31:0] $end
$var wire 32 } result14 [31:0] $end
$var wire 32 ~ result13 [31:0] $end
$var wire 32 !" result12 [31:0] $end
$var wire 32 "" result11 [31:0] $end
$var wire 32 #" result10 [31:0] $end
$var wire 32 $" result09 [31:0] $end
$var wire 32 %" result08 [31:0] $end
$var wire 32 &" result07 [31:0] $end
$var wire 32 '" result05 [31:0] $end
$var wire 32 (" result04 [31:0] $end
$var wire 32 )" result03 [31:0] $end
$var wire 32 *" result02 [31:0] $end
$var wire 32 +" result01 [31:0] $end
$var wire 32 ," result00 [31:0] $end
$var wire 5 -" Opcode [4:0] $end
$var reg 32 ." result [31:0] $end
$scope module add_unit $end
$var wire 32 /" data1 [31:0] $end
$var wire 32 0" data2 [31:0] $end
$var wire 32 1" result [31:0] $end
$upscope $end
$scope module and_unit $end
$var wire 32 2" data1 [31:0] $end
$var wire 32 3" data2 [31:0] $end
$var wire 32 4" result [31:0] $end
$upscope $end
$scope module div_unit $end
$var wire 32 5" data1 [31:0] $end
$var wire 32 6" data2 [31:0] $end
$var wire 32 7" result [31:0] $end
$upscope $end
$scope module divu_unit $end
$var wire 32 8" data1 [31:0] $end
$var wire 32 9" data2 [31:0] $end
$var wire 32 :" result [31:0] $end
$upscope $end
$scope module forward_unit $end
$var wire 32 ;" data2 [31:0] $end
$var wire 32 <" result [31:0] $end
$upscope $end
$scope module mul_unit $end
$var wire 32 =" data1 [31:0] $end
$var wire 32 >" data2 [31:0] $end
$var wire 32 ?" result [31:0] $end
$var reg 65 @" result1 [64:0] $end
$upscope $end
$scope module mulh_unit $end
$var wire 32 A" data1 [31:0] $end
$var wire 32 B" data2 [31:0] $end
$var wire 32 C" result [31:0] $end
$var reg 65 D" result1 [64:0] $end
$upscope $end
$scope module mulhsu_unit $end
$var wire 32 E" data1 [31:0] $end
$var wire 32 F" data2 [31:0] $end
$var wire 32 G" result [31:0] $end
$var reg 64 H" result1 [63:0] $end
$upscope $end
$scope module mulhu_unit $end
$var wire 32 I" data1 [31:0] $end
$var wire 32 J" data2 [31:0] $end
$var wire 32 K" result [31:0] $end
$var reg 64 L" result1 [63:0] $end
$upscope $end
$scope module or_unit $end
$var wire 32 M" data1 [31:0] $end
$var wire 32 N" data2 [31:0] $end
$var wire 32 O" result [31:0] $end
$upscope $end
$scope module rem_unit $end
$var wire 32 P" data1 [31:0] $end
$var wire 32 Q" data2 [31:0] $end
$var wire 32 R" result [31:0] $end
$upscope $end
$scope module remu_unit $end
$var wire 32 S" data1 [31:0] $end
$var wire 32 T" data2 [31:0] $end
$var wire 32 U" result [31:0] $end
$upscope $end
$scope module sll_unit $end
$var wire 32 V" data1 [31:0] $end
$var wire 32 W" data2 [31:0] $end
$var wire 32 X" result [31:0] $end
$upscope $end
$scope module slt_unit $end
$var wire 32 Y" data1 [31:0] $end
$var wire 32 Z" data2 [31:0] $end
$var wire 32 [" result [31:0] $end
$upscope $end
$scope module sltu_unit $end
$var wire 32 \" data1 [31:0] $end
$var wire 32 ]" data2 [31:0] $end
$var wire 32 ^" result [31:0] $end
$upscope $end
$scope module sra_unit $end
$var wire 32 _" data1 [31:0] $end
$var wire 32 `" data2 [31:0] $end
$var wire 32 a" result [31:0] $end
$upscope $end
$scope module srl_unit $end
$var wire 32 b" data1 [31:0] $end
$var wire 32 c" data2 [31:0] $end
$var wire 32 d" result [31:0] $end
$upscope $end
$scope module sub_unit $end
$var wire 32 e" data1 [31:0] $end
$var wire 32 f" data2 [31:0] $end
$var wire 32 g" result [31:0] $end
$upscope $end
$scope module xor_unit $end
$var wire 32 h" data1 [31:0] $end
$var wire 32 i" data2 [31:0] $end
$var wire 32 j" result [31:0] $end
$upscope $end
$upscope $end
$scope module branch_control1 $end
$var wire 3 k" funct3 [2:0] $end
$var wire 1 J jump $end
$var wire 32 l" data2 [31:0] $end
$var wire 32 m" data1 [31:0] $end
$var wire 1 Y branch $end
$var reg 1 Z isJumpOrBranch $end
$upscope $end
$upscope $end
$scope module EX_MA $end
$var wire 32 n" ALU_out [31:0] $end
$var wire 1 ! CLK $end
$var wire 32 o" DATA_2 [31:0] $end
$var wire 1 A MUX3_select $end
$var wire 3 p" func_3 [2:0] $end
$var wire 1 , mem_read $end
$var wire 1 - mem_write $end
$var wire 5 q" rd [4:0] $end
$var wire 1 2 regwrite_enable $end
$var reg 32 r" ALU_out_out [31:0] $end
$var reg 32 s" DATA_2_out [31:0] $end
$var reg 1 ? MUX3_select_out $end
$var reg 3 t" func_3_out [2:0] $end
$var reg 1 # mem_read_out $end
$var reg 1 $ mem_write_out $end
$var reg 5 u" rd_out [4:0] $end
$var reg 1 1 regwrite_enable_out $end
$upscope $end
$scope module ID $end
$var wire 1 ! clk $end
$var wire 1 ) reset $end
$var wire 5 v" write_reg [4:0] $end
$var wire 32 w" write_data [31:0] $end
$var wire 1 4 wite_enable $end
$var wire 1 5 reg_write_enable $end
$var wire 32 x" pc_out [31:0] $end
$var wire 32 y" pc4_out [31:0] $end
$var wire 32 z" pc4 [31:0] $end
$var wire 32 {" pc [31:0] $end
$var wire 1 @ mux3_select $end
$var wire 1 C mux2_select $end
$var wire 1 E mux1_select $end
$var wire 1 G mem_write_enable $end
$var wire 1 H mem_read_enable $end
$var wire 1 I jump $end
$var wire 32 |" instruction [31:0] $end
$var wire 32 }" immidiate_value [31:0] $end
$var wire 3 ~" imm_select [2:0] $end
$var wire 3 !# funct3 [2:0] $end
$var wire 32 "# data2 [31:0] $end
$var wire 32 ## data1 [31:0] $end
$var wire 1 X branch $end
$var wire 5 $# Rd [4:0] $end
$var wire 1 ^ JAL_select $end
$var wire 5 %# AlU_opcode [4:0] $end
$scope module control_unit $end
$var wire 7 &# opcode [6:0] $end
$var wire 32 '# instruction [31:0] $end
$var wire 7 (# funct7 [6:0] $end
$var wire 3 )# funct3 [2:0] $end
$var reg 5 *# AlU_opcode [4:0] $end
$var reg 1 X branch $end
$var reg 3 +# imm_select [2:0] $end
$var reg 1 ^ jal_select $end
$var reg 1 I jump $end
$var reg 1 H mem_read $end
$var reg 1 G mem_write $end
$var reg 1 E mux1_select $end
$var reg 1 C mux2_select $end
$var reg 1 @ mux3_select $end
$var reg 1 5 regwrite_enable $end
$upscope $end
$scope module immidiate $end
$var wire 3 ,# imm_select [2:0] $end
$var wire 32 -# instruction [31:0] $end
$var reg 32 .# immediate [31:0] $end
$upscope $end
$scope module register_file $end
$var wire 1 /# R $end
$var wire 5 0# addr1 [4:0] $end
$var wire 5 1# addr2 [4:0] $end
$var wire 1 ! clk $end
$var wire 32 2# data1 [31:0] $end
$var wire 32 3# data2 [31:0] $end
$var wire 1 ) reset $end
$var wire 5 4# write_reg_addr [4:0] $end
$var wire 1 4 write_enable $end
$var wire 32 5# reg_write_data [31:0] $end
$upscope $end
$upscope $end
$scope module ID_EX $end
$var wire 1 ! CLK $end
$var wire 32 6# Immediate [31:0] $end
$var wire 3 7# Instruction_func3 [2:0] $end
$var wire 5 8# alu_select [4:0] $end
$var wire 1 X branch $end
$var wire 32 9# data1 [31:0] $end
$var wire 32 :# data2 [31:0] $end
$var wire 5 ;# destination_reg [4:0] $end
$var wire 1 ^ jal_select $end
$var wire 1 I jump $end
$var wire 1 H mem_read $end
$var wire 1 G mem_write $end
$var wire 1 E mux1_select $end
$var wire 1 C mux2_select $end
$var wire 1 @ mux3_select $end
$var wire 1 5 regwrite_enable $end
$var wire 32 <# PC4 [31:0] $end
$var wire 32 =# PC [31:0] $end
$var reg 32 ># Immediate_out [31:0] $end
$var reg 3 ?# Instruction_func3_out [2:0] $end
$var reg 32 @# PC4_out [31:0] $end
$var reg 32 A# PC_out [31:0] $end
$var reg 5 B# alu_select_out [4:0] $end
$var reg 1 Y branch_out $end
$var reg 32 C# data1_out [31:0] $end
$var reg 32 D# data2_out [31:0] $end
$var reg 5 E# destination_reg_out [4:0] $end
$var reg 1 K jal_select_out $end
$var reg 1 J jump_out $end
$var reg 1 F# mem_read_out $end
$var reg 1 G# mem_write_out $end
$var reg 1 F mux1_select_out $end
$var reg 1 D mux2_select_out $end
$var reg 1 B mux3_select_out $end
$var reg 1 3 regwrite_enable_out $end
$upscope $end
$scope module IF $end
$var wire 1 ! CLK $end
$var wire 1 ) RESET $end
$var wire 32 H# branch_address [31:0] $end
$var wire 1 Z branch_control $end
$var wire 1 4 reg_write_enable_out $end
$var wire 5 I# write_reg_out [4:0] $end
$var wire 32 J# write_data_out [31:0] $end
$var wire 1 0 reg_write_enable $end
$var wire 32 K# pc_out [31:0] $end
$var wire 32 L# pc4_out [31:0] $end
$var wire 1 > mux3_select $end
$var wire 32 M# instruction_out [31:0] $end
$var wire 5 N# Rd [4:0] $end
$var wire 32 O# MEMD [31:0] $end
$var wire 32 P# ALUD [31:0] $end
$var reg 32 Q# pc_input [31:0] $end
$scope module instruction_memory1 $end
$var wire 1 ! clk $end
$var wire 1 ) reset $end
$var wire 32 R# PC [31:0] $end
$var reg 32 S# instruction [31:0] $end
$upscope $end
$scope module pc1 $end
$var wire 1 ! CLK $end
$var wire 1 ) RESET $end
$var wire 32 T# pc_in [31:0] $end
$var reg 32 U# pc [31:0] $end
$upscope $end
$upscope $end
$scope module IF_ID $end
$var wire 1 ! CLK $end
$var wire 32 V# PC [31:0] $end
$var wire 32 W# PC4 [31:0] $end
$var wire 32 X# instruction [31:0] $end
$var reg 32 Y# PC4_out [31:0] $end
$var reg 32 Z# PC_out [31:0] $end
$var reg 32 [# instruction_out [31:0] $end
$upscope $end
$scope module MA $end
$var wire 32 \# alud [31:0] $end
$var wire 32 ]# alud_out [31:0] $end
$var wire 1 ! clk $end
$var wire 32 ^# data2 [31:0] $end
$var wire 3 _# func3 [2:0] $end
$var wire 1 # mem_read $end
$var wire 1 $ mem_write $end
$var wire 1 ? mux3_select $end
$var wire 1 ? mux3_select_out $end
$var wire 5 `# rd [4:0] $end
$var wire 5 a# rd_out [4:0] $end
$var wire 1 1 regwrite_enable $end
$var wire 1 1 regwrite_enable_out $end
$var wire 1 " reset $end
$var wire 32 b# read_data [31:0] $end
$scope module data_memory $end
$var wire 3 c# func3 [2:0] $end
$var reg 1 d# mem_read_access $end
$var reg 1 e# mem_write_access $end
$var integer 32 f# i [31:0] $end
$scope task dump_memory $end
$var integer 32 g# j [31:0] $end
$upscope $end
$upscope $end
$upscope $end
$scope module MA_WB $end
$var wire 32 h# ALU_out [31:0] $end
$var wire 1 ! CLK $end
$var wire 1 ? MUX3_select $end
$var wire 5 i# rd [4:0] $end
$var wire 32 j# read_data [31:0] $end
$var wire 1 1 regwrite_enable $end
$var reg 32 k# ALU_out_out [31:0] $end
$var reg 1 > MUX3_select_out $end
$var reg 5 l# rd_out [4:0] $end
$var reg 32 m# read_data_out [31:0] $end
$var reg 1 0 regwrite_enable_out $end
$upscope $end
$upscope $end
$upscope $end
$scope module CPUtb $end
$scope module mycpu $end
$scope module ID $end
$scope module register_file $end
$var reg 32 n# \register[0] [31:0] $end
$upscope $end
$upscope $end
$upscope $end
$upscope $end
$scope module CPUtb $end
$scope module mycpu $end
$scope module ID $end
$scope module register_file $end
$var reg 32 o# \register[1] [31:0] $end
$upscope $end
$upscope $end
$upscope $end
$upscope $end
$scope module CPUtb $end
$scope module mycpu $end
$scope module ID $end
$scope module register_file $end
$var reg 32 p# \register[2] [31:0] $end
$upscope $end
$upscope $end
$upscope $end
$upscope $end
$scope module CPUtb $end
$scope module mycpu $end
$scope module ID $end
$scope module register_file $end
$var reg 32 q# \register[3] [31:0] $end
$upscope $end
$upscope $end
$upscope $end
$upscope $end
$scope module CPUtb $end
$scope module mycpu $end
$scope module ID $end
$scope module register_file $end
$var reg 32 r# \register[4] [31:0] $end
$upscope $end
$upscope $end
$upscope $end
$upscope $end
$scope module CPUtb $end
$scope module mycpu $end
$scope module ID $end
$scope module register_file $end
$var reg 32 s# \register[5] [31:0] $end
$upscope $end
$upscope $end
$upscope $end
$upscope $end
$scope module CPUtb $end
$scope module mycpu $end
$scope module ID $end
$scope module register_file $end
$var reg 32 t# \register[6] [31:0] $end
$upscope $end
$upscope $end
$upscope $end
$upscope $end
$scope module CPUtb $end
$scope module mycpu $end
$scope module ID $end
$scope module register_file $end
$var reg 32 u# \register[7] [31:0] $end
$upscope $end
$upscope $end
$upscope $end
$upscope $end
$enddefinitions $end
$comment Show the parameter values. $end
$dumpall
$end
#0
$dumpvars
bx u#
bx t#
bx s#
bx r#
bx q#
bx p#
bx o#
bx n#
bx m#
bx l#
bx k#
bx j#
bx i#
bx h#
bx g#
bx f#
xe#
xd#
bx c#
bx b#
bx a#
bx `#
bx _#
bx ^#
bx ]#
bx \#
bx [#
bx Z#
bx Y#
bx X#
bx W#
bx V#
bx U#
bx T#
bx S#
bx R#
bx Q#
bx P#
bx O#
bx N#
bx M#
bx L#
bx K#
bx J#
bx I#
bx H#
xG#
xF#
bx E#
bx D#
bx C#
bx B#
bx A#
bx @#
bx ?#
bx >#
bx =#
bx <#
bx ;#
bx :#
bx 9#
bx 8#
bx 7#
bx 6#
bx 5#
bx 4#
bx 3#
bx 2#
bx 1#
bx 0#
z/#
bx .#
bx -#
bx ,#
bx +#
bx *#
bx )#
bx (#
bx '#
bx &#
bx %#
bx $#
bx ##
bx "#
bx !#
bx ~"
bx }"
bx |"
bx {"
bx z"
bx y"
bx x"
bx w"
bx v"
bx u"
bx t"
bx s"
bx r"
bx q"
bx p"
bx o"
bx n"
bx m"
bx l"
bx k"
bx j"
bx i"
bx h"
bx g"
bx f"
bx e"
bx d"
bx c"
bx b"
bx a"
bx `"
bx _"
b0x ^"
bx ]"
bx \"
b0x ["
bx Z"
bx Y"
bx X"
bx W"
bx V"
bx U"
bx T"
bx S"
bx R"
bx Q"
bx P"
bx O"
bx N"
bx M"
bx L"
bx K"
bx J"
bx I"
bx H"
bx G"
bx F"
bx E"
bx D"
bx C"
bx B"
bx A"
bx @"
bx ?"
bx >"
bx ="
bx <"
bx ;"
bx :"
bx 9"
bx 8"
bx 7"
bx 6"
bx 5"
bx 4"
bx 3"
bx 2"
bx 1"
bx 0"
bx /"
bx ."
bx -"
bx ,"
bx +"
bx *"
bx )"
bx ("
bx '"
bx &"
bx %"
bx $"
bx #"
bx ""
bx !"
bx ~
bx }
b0x |
bx {
b0x z
bx y
bx x
bx w
bx v
bx u
bx t
bx s
bx r
bx q
bx p
bx o
bx n
bx m
bx l
bx k
bx j
bx i
bx h
bx g
bx f
bx e
bx d
bx c
bx b
bx a
bx `
bx _
x^
bx ]
bx \
bx [
xZ
xY
xX
bx W
bx V
bx U
bx T
bx S
bx R
bx Q
bx P
bx O
bx N
bx M
bx L
xK
xJ
xI
xH
xG
xF
xE
xD
xC
xB
xA
x@
x?
x>
bx =
bx <
bx ;
bx :
bx 9
bx 8
bx 7
bx 6
x5
x4
x3
x2
x1
x0
bx /
bx .
x-
x,
bx +
b1000 *
1)
x(
bx '
bx &
bx %
x$
x#
z"
0!
$end
#8000
b0 Q#
b0 T#
b0 u#
b0 t#
b0 s#
b0 r#
b0 q#
b10 p#
b111 o#
b0 n#
1!
#9000
b100 <
b100 L#
b100 W#
b0 :
b0 K#
b0 R#
b0 U#
b0 V#
0)
#16000
0!
#24000
b100 Q#
b100 T#
b1000001000000110110011 M
b1000001000000110110011 M#
b1000001000000110110011 S#
b1000001000000110110011 X#
b100 =
b100 y"
b100 z"
b100 <#
b100 Y#
b0 ;
b0 x"
b0 {"
b0 =#
b0 Z#
1!
#25000
b1000 <
b1000 L#
b1000 W#
b100 :
b100 K#
b100 R#
b100 U#
b100 V#
#32000
0!
#40000
b10 N
b10 }"
b10 .#
b10 6#
b0 e
b0 %#
b0 *#
b0 8#
b0 ~"
b0 +#
b0 ,#
0^
0I
0X
0G
0H
15
0@
0C
1E
b0 (#
b0 )#
b110011 &#
b11 [
b11 $#
b11 ;#
b0 O
b0 !#
b0 7#
b10 T
b10 "#
b10 3#
b10 :#
b10 1#
b111 V
b111 ##
b111 2#
b111 9#
b1 0#
b1000 =
b1000 y"
b1000 z"
b1000 <#
b1000 Y#
b100 ;
b100 x"
b100 {"
b100 =#
b100 Z#
b1000001000000110110011 L
b1000001000000110110011 |"
b1000001000000110110011 '#
b1000001000000110110011 -#
b1000001000000110110011 [#
b0 \
b0 m
b0 A#
b100 ]
b100 l
b100 @#
b1000000001000001000001000110011 M
b1000000001000001000001000110011 M#
b1000000001000001000001000110011 S#
b1000000001000001000001000110011 X#
b1000 Q#
b1000 T#
1!
#41000
b1100 <
b1100 L#
b1100 W#
b1000 :
b1000 K#
b1000 R#
b1000 U#
b1000 V#
#48000
0!
#56000
b0 &"
b0 G"
b0 '"
b0 C"
b1110 ("
b1110 ?"
b0 |
b0 ["
b0 z
b0 ^"
b1001 b
b1001 t
b1001 ."
b1001 n"
b1001 H#
b10 *"
b10 4"
b1110 H"
b1110 L"
b1110 D"
b1110 @"
b111 )"
b111 O"
b101 +"
b101 j"
b10000 e
b10000 %#
b10000 *#
b10000 8#
b1001 ,"
b1001 1"
b11 %"
b11 7"
b11 $"
b11 :"
b10 !"
b10 <"
b1 #"
b1 R"
b1 ""
b1 U"
b11100 ~
b11100 X"
b1 }
b1 a"
b1 y
b1 d"
b101 {
b101 g"
b10 n
b10 w
b10 0"
b10 3"
b10 6"
b10 9"
b10 ;"
b10 >"
b10 B"
b10 F"
b10 J"
b10 N"
b10 Q"
b10 T"
b10 W"
b10 Z"
b10 ]"
b10 `"
b10 c"
b10 f"
b10 i"
b111 o
b111 v
b111 /"
b111 2"
b111 5"
b111 8"
b111 ="
b111 A"
b111 E"
b111 I"
b111 M"
b111 P"
b111 S"
b111 V"
b111 Y"
b111 \"
b111 _"
b111 b"
b111 e"
b111 h"
b1000 f
b1000 u
0Z
b100000 (#
b100 [
b100 $#
b100 ;#
b10000000010 N
b10000000010 }"
b10000000010 .#
b10000000010 6#
b1100 Q#
b1100 T#
b1100000010000000100011 M
b1100000010000000100011 M#
b1100000010000000100011 S#
b1100000010000000100011 X#
b11 Q
b11 j
b11 q"
b11 R
b11 k
b11 E#
b0 ?#
b10 S
b10 g
b10 o"
b10 U
b10 q
b10 l"
b10 D#
b111 W
b111 r
b111 m"
b111 C#
b10 _
b10 p
b10 >#
b100 \
b100 m
b100 A#
b1000 ]
b1000 l
b1000 @#
0K
0J
0Y
0G#
0F#
12
13
0A
0B
0D
1F
b0 a
b0 s
b0 -"
b0 B#
b1100 =
b1100 y"
b1100 z"
b1100 <#
b1100 Y#
b1000 ;
b1000 x"
b1000 {"
b1000 =#
b1000 Z#
b1000000001000001000001000110011 L
b1000000001000001000001000110011 |"
b1000000001000001000001000110011 '#
b1000000001000001000001000110011 -#
b1000000001000001000001000110011 [#
1!
#57000
b10000 <
b10000 L#
b10000 W#
b1100 :
b1100 K#
b1100 R#
b1100 U#
b1100 V#
#64000
0!
#72000
b0 (#
b10 )#
b100011 &#
b0 [
b0 $#
b0 ;#
b10 O
b10 !#
b10 7#
b0 T
b0 "#
b0 3#
b0 :#
b11 1#
b0 V
b0 ##
b0 2#
b0 9#
b0 0#
b11 N
b11 }"
b11 .#
b11 6#
b1100 f
b1100 u
b101 b
b101 t
b101 ."
b101 n"
b101 H#
b10000 =
b10000 y"
b10000 z"
b10000 <#
b10000 Y#
b1100 ;
b1100 x"
b1100 {"
b1100 =#
b1100 Z#
b1100000010000000100011 L
b1100000010000000100011 |"
b1100000010000000100011 '#
b1100000010000000100011 -#
b1100000010000000100011 [#
b100 Q
b100 j
b100 q"
b100 R
b100 k
b100 E#
b10000000010 _
b10000000010 p
b10000000010 >#
b1000 \
b1000 m
b1000 A#
b1100 ]
b1100 l
b1100 @#
b10000 a
b10000 s
b10000 -"
b10000 B#
b11 9
b11 u"
b11 `#
b11 a#
b11 i#
b10 &
b10 `
b10 s"
b10 ^#
b1001 %
b1001 d
b1001 r"
b1001 \#
b1001 ]#
b1001 h#
11
0?
b10000000010001000100011 M
b10000000010001000100011 M#
b10000000010001000100011 S#
b10000000010001000100011 X#
b10000 Q#
b10000 T#
1!
#73000
b10100 <
b10100 L#
b10100 W#
b10000 :
b10000 K#
b10000 R#
b10000 U#
b10000 V#
b0 N
b0 }"
b0 .#
b0 6#
1G
05
x@
1C
0E
b1 ~"
b1 +#
b1 ,#
b0 e
b0 %#
b0 *#
b0 8#
#80000
0!
#88000
b0 ("
b0 ?"
b0 *"
b0 4"
b0 @"
b0 D"
b0 L"
b0 H"
b1100 )"
b1100 O"
b1100 +"
b1100 j"
b1001 /
b1001 w"
b1001 5#
b1001 J#
b0 !"
b0 <"
b0 n
b0 w
b0 0"
b0 3"
b0 6"
b0 9"
b0 ;"
b0 >"
b0 B"
b0 F"
b0 J"
b0 N"
b0 Q"
b0 T"
b0 W"
b0 Z"
b0 ]"
b0 `"
b0 c"
b0 f"
b0 i"
b1100 ,"
b1100 1"
bx %"
bx 7"
bx $"
bx :"
bx #"
bx R"
bx ""
bx U"
b1100 ~
b1100 X"
b1100 }
b1100 a"
b1100 y
b1100 d"
b1100 {
b1100 g"
b1100 o
b1100 v
b1100 /"
b1100 2"
b1100 5"
b1100 8"
b1100 ="
b1100 A"
b1100 E"
b1100 I"
b1100 M"
b1100 P"
b1100 S"
b1100 V"
b1100 Y"
b1100 \"
b1100 _"
b1100 b"
b1100 e"
b1100 h"
b10000 f
b10000 u
b1100 b
b1100 t
b1100 ."
b1100 n"
b1100 H#
b100 [
b100 $#
b100 ;#
b100 1#
b100 N
b100 }"
b100 .#
b100 6#
b10100 Q#
b10100 T#
b10001010000011 M
b10001010000011 M#
b10001010000011 S#
b10001010000011 X#
b11 .
b11 v"
b11 4#
b11 I#
b11 8
b11 N#
b11 l#
b1001 c
b1001 P#
b1001 k#
14
10
0>
b100 9
b100 u"
b100 `#
b100 a#
b100 i#
b101 %
b101 d
b101 r"
b101 \#
b101 ]#
b101 h#
b0 Q
b0 j
b0 q"
b0 R
b0 k
b0 E#
b10 ?#
b0 S
b0 g
b0 o"
b0 U
b0 q
b0 l"
b0 D#
b0 W
b0 r
b0 m"
b0 C#
b0 _
b0 p
b0 >#
b1100 \
b1100 m
b1100 A#
b10000 ]
b10000 l
b10000 @#
1G#
02
03
xA
xB
1D
0F
b0 a
b0 s
b0 -"
b0 B#
b10100 =
b10100 y"
b10100 z"
b10100 <#
b10100 Y#
b10000 ;
b10000 x"
b10000 {"
b10000 =#
b10000 Z#
b10000000010001000100011 L
b10000000010001000100011 |"
b10000000010001000100011 '#
b10000000010001000100011 -#
b10000000010001000100011 [#
1!
#89000
b11000 <
b11000 L#
b11000 W#
b10100 :
b10100 K#
b10100 R#
b10100 U#
b10100 V#
#96000
0!
