verilog/CPU/dump.vcd
$date
	Sat Feb 01 21:30:21 2025
$end
$version
	Icarus Verilog
$end
$timescale
	1ps
$end
$scope module CPUtb $end
$scope module mycpu $end
$scope module MA $end
$scope module data_memory $end
$var wire 1 ! clk $end
$upscope $end
$upscope $end
$upscope $end
$upscope $end
$scope module CPUtb $end
$scope module mycpu $end
$scope module MA $end
$scope module data_memory $end
$var wire 1 " reset $end
$upscope $end
$upscope $end
$upscope $end
$upscope $end
$scope module CPUtb $end
$scope module mycpu $end
$scope module MA $end
$scope module data_memory $end
$var wire 1 # mem_read $end
$upscope $end
$upscope $end
$upscope $end
$upscope $end
$scope module CPUtb $end
$scope module mycpu $end
$scope module MA $end
$scope module data_memory $end
$var wire 1 $ mem_write $end
$upscope $end
$upscope $end
$upscope $end
$upscope $end
$scope module CPUtb $end
$scope module mycpu $end
$scope module MA $end
$scope module data_memory $end
$var wire 32 % mem_address [31:0] $end
$upscope $end
$upscope $end
$upscope $end
$upscope $end
$scope module CPUtb $end
$scope module mycpu $end
$scope module MA $end
$scope module data_memory $end
$var wire 32 & data_in [31:0] $end
$upscope $end
$upscope $end
$upscope $end
$upscope $end
$scope module CPUtb $end
$scope module mycpu $end
$scope module MA $end
$scope module data_memory $end
$var reg 32 ' data_out [31:0] $end
$upscope $end
$upscope $end
$upscope $end
$upscope $end
$scope module CPUtb $end
$scope module mycpu $end
$scope module MA $end
$scope module data_memory $end
$var reg 1 ( busywait $end
$upscope $end
$upscope $end
$upscope $end
$upscope $end
$scope module CPUtb $end
$var reg 1 ! CLK $end
$var reg 1 ) reset $end
$scope module mycpu $end
$var wire 1 ! CLK $end
$var wire 3 * Instruction_func3_ex [2:0] $end
$var wire 1 ) RESET $end
$var wire 5 + destination_reg_ex [4:0] $end
$var wire 1 , mem_read_enable_ex $end
$var wire 1 - mem_write_enable_ex $end
$var wire 1 . mux3_select_ex $end
$var wire 1 / mux3_select_id $end
$var wire 1 0 regwrite_enable_ex $end
$var wire 1 " reset $end
$var wire 5 1 write_reg_out_if [4:0] $end
$var wire 32 2 write_data_out_if [31:0] $end
$var wire 1 3 regwrite_enable_wb $end
$var wire 1 4 regwrite_enable_ma $end
$var wire 1 5 reg_write_enable_out_if $end
$var wire 1 6 reg_write_enable_id $end
$var wire 32 7 read_data_wb [31:0] $end
$var wire 32 8 read_data_ma [31:0] $end
$var wire 5 9 rd_wb [4:0] $end
$var wire 5 : rd_ma [4:0] $end
$var wire 32 ; pc_out_if [31:0] $end
$var wire 32 < pc_out_id [31:0] $end
$var wire 32 = pc4_out_if [31:0] $end
$var wire 32 > pc4_out_id [31:0] $end
$var wire 1 ? mux3_select_wb $end
$var wire 1 @ mux3_select_ma $end
$var wire 1 A mux2_select_id $end
$var wire 1 B mux2_select_ex $end
$var wire 1 C mux1_select_id $end
$var wire 1 D mux1_select_ex $end
$var wire 1 $ mem_write_ma $end
$var wire 1 E mem_write_enable_id $end
$var wire 1 # mem_read_ma $end
$var wire 1 F mem_read_enable_id $end
$var wire 1 G jump_id $end
$var wire 1 H jump_ex $end
$var wire 1 I jal_select_ex $end
$var wire 32 J instruction_out_ip [31:0] $end
$var wire 32 K instruction_out_if [31:0] $end
$var wire 32 L immidiate_value_id [31:0] $end
$var wire 3 M funct3_id [2:0] $end
$var wire 3 N func3_ma [2:0] $end
$var wire 32 O data2_out_ex [31:0] $end
$var wire 32 P data2_id [31:0] $end
$var wire 32 Q data2_ex [31:0] $end
$var wire 32 R data1_id [31:0] $end
$var wire 32 S data1_ex [31:0] $end
$var wire 1 T branch_id $end
$var wire 1 U branch_ex $end
$var wire 1 V branch_control_out_ex $end
$var wire 5 W Rd_id [4:0] $end
$var wire 32 X PC_ex [31:0] $end
$var wire 32 Y PC4_ex [31:0] $end
$var wire 1 Z JAL_select_id $end
$var wire 32 [ Immediate_ex [31:0] $end
$var wire 32 \ DATA_2_ma [31:0] $end
$var wire 5 ] ALU_select_ex [4:0] $end
$var wire 32 ^ ALU_result_ex [31:0] $end
$var wire 32 _ ALU_out_wb [31:0] $end
$var wire 32 ` ALU_out_ma [31:0] $end
$var wire 5 a ALU_opcode_id [4:0] $end
$var wire 32 b ALUD_ex [31:0] $end
$scope module EX $end
$var wire 32 c data2_out [31:0] $end
$var wire 3 d funct3 [2:0] $end
$var wire 3 e funct3_out [2:0] $end
$var wire 1 , memory_read_enable $end
$var wire 1 , memory_read_enable_out $end
$var wire 1 - memory_write_enable $end
$var wire 1 - memory_write_enable_out $end
$var wire 1 . mux3_select $end
$var wire 1 . mux3_select_out $end
$var wire 5 f rd [4:0] $end
$var wire 5 g rd_out [4:0] $end
$var wire 1 0 regwrite_enable $end
$var wire 1 0 regwrite_enable_out $end
$var wire 32 h pc4 [31:0] $end
$var wire 32 i pc [31:0] $end
$var wire 1 B mux2_select $end
$var wire 32 j mux2_out [31:0] $end
$var wire 1 D mux1_select $end
$var wire 32 k mux1_out [31:0] $end
$var wire 1 H jump $end
$var wire 1 I jal_select $end
$var wire 32 l immediate [31:0] $end
$var wire 32 m data2 [31:0] $end
$var wire 32 n data1 [31:0] $end
$var wire 1 V branch_control_out $end
$var wire 1 U branch $end
$var wire 5 o ALU_select [4:0] $end
$var wire 32 p ALU_result [31:0] $end
$var wire 32 q ALUD [31:0] $end
$scope module ALU_unit1 $end
$var wire 32 r data1 [31:0] $end
$var wire 32 s data2 [31:0] $end
$var wire 32 t result06 [31:0] $end
$var wire 32 u result18 [31:0] $end
$var wire 32 v result17 [31:0] $end
$var wire 32 w result16 [31:0] $end
$var wire 32 x result15 [31:0] $end
$var wire 32 y result14 [31:0] $end
$var wire 32 z result13 [31:0] $end
$var wire 32 { result12 [31:0] $end
$var wire 32 | result11 [31:0] $end
$var wire 32 } result10 [31:0] $end
$var wire 32 ~ result09 [31:0] $end
$var wire 32 !" result08 [31:0] $end
$var wire 32 "" result07 [31:0] $end
$var wire 32 #" result05 [31:0] $end
$var wire 32 $" result04 [31:0] $end
$var wire 32 %" result03 [31:0] $end
$var wire 32 &" result02 [31:0] $end
$var wire 32 '" result01 [31:0] $end
$var wire 32 (" result00 [31:0] $end
$var wire 5 )" Opcode [4:0] $end
$var reg 32 *" result [31:0] $end
$scope module add_unit $end
$var wire 32 +" data1 [31:0] $end
$var wire 32 ," data2 [31:0] $end
$var wire 32 -" result [31:0] $end
$upscope $end
$scope module and_unit $end
$var wire 32 ." data1 [31:0] $end
$var wire 32 /" data2 [31:0] $end
$var wire 32 0" result [31:0] $end
$upscope $end
$scope module div_unit $end
$var wire 32 1" data1 [31:0] $end
$var wire 32 2" data2 [31:0] $end
$var wire 32 3" result [31:0] $end
$upscope $end
$scope module divu_unit $end
$var wire 32 4" data1 [31:0] $end
$var wire 32 5" data2 [31:0] $end
$var wire 32 6" result [31:0] $end
$upscope $end
$scope module forward_unit $end
$var wire 32 7" data2 [31:0] $end
$var wire 32 8" result [31:0] $end
$upscope $end
$scope module mul_unit $end
$var wire 32 9" data1 [31:0] $end
$var wire 32 :" data2 [31:0] $end
$var wire 32 ;" result [31:0] $end
$var reg 65 <" result1 [64:0] $end
$upscope $end
$scope module mulh_unit $end
$var wire 32 =" data1 [31:0] $end
$var wire 32 >" data2 [31:0] $end
$var wire 32 ?" result [31:0] $end
$var reg 65 @" result1 [64:0] $end
$upscope $end
$scope module mulhsu_unit $end
$var wire 32 A" data1 [31:0] $end
$var wire 32 B" data2 [31:0] $end
$var wire 32 C" result [31:0] $end
$var reg 64 D" result1 [63:0] $end
$upscope $end
$scope module mulhu_unit $end
$var wire 32 E" data1 [31:0] $end
$var wire 32 F" data2 [31:0] $end
$var wire 32 G" result [31:0] $end
$var reg 64 H" result1 [63:0] $end
$upscope $end
$scope module or_unit $end
$var wire 32 I" data1 [31:0] $end
$var wire 32 J" data2 [31:0] $end
$var wire 32 K" result [31:0] $end
$upscope $end
$scope module rem_unit $end
$var wire 32 L" data1 [31:0] $end
$var wire 32 M" data2 [31:0] $end
$var wire 32 N" result [31:0] $end
$upscope $end
$scope module remu_unit $end
$var wire 32 O" data1 [31:0] $end
$var wire 32 P" data2 [31:0] $end
$var wire 32 Q" result [31:0] $end
$upscope $end
$scope module sll_unit $end
$var wire 32 R" data1 [31:0] $end
$var wire 32 S" data2 [31:0] $end
$var wire 32 T" result [31:0] $end
$upscope $end
$scope module slt_unit $end
$var wire 32 U" data1 [31:0] $end
$var wire 32 V" data2 [31:0] $end
$var wire 32 W" result [31:0] $end
$upscope $end
$scope module sltu_unit $end
$var wire 32 X" data1 [31:0] $end
$var wire 32 Y" data2 [31:0] $end
$var wire 32 Z" result [31:0] $end
$upscope $end
$scope module sra_unit $end
$var wire 32 [" data1 [31:0] $end
$var wire 32 \" data2 [31:0] $end
$var wire 32 ]" result [31:0] $end
$upscope $end
$scope module srl_unit $end
$var wire 32 ^" data1 [31:0] $end
$var wire 32 _" data2 [31:0] $end
$var wire 32 `" result [31:0] $end
$upscope $end
$scope module sub_unit $end
$var wire 32 a" data1 [31:0] $end
$var wire 32 b" data2 [31:0] $end
$var wire 32 c" result [31:0] $end
$upscope $end
$scope module xor_unit $end
$var wire 32 d" data1 [31:0] $end
$var wire 32 e" data2 [31:0] $end
$var wire 32 f" result [31:0] $end
$upscope $end
$upscope $end
$scope module branch_control1 $end
$var wire 3 g" funct3 [2:0] $end
$var wire 1 H jump $end
$var wire 32 h" data2 [31:0] $end
$var wire 32 i" data1 [31:0] $end
$var wire 1 U branch $end
$var reg 1 V isJumpOrBranch $end
$upscope $end
$upscope $end
$scope module EX_MA $end
$var wire 32 j" ALU_out [31:0] $end
$var wire 1 ! CLK $end
$var wire 32 k" DATA_2 [31:0] $end
$var wire 1 . MUX3_select $end
$var wire 3 l" func_3 [2:0] $end
$var wire 1 , mem_read $end
$var wire 1 - mem_write $end
$var wire 5 m" rd [4:0] $end
$var wire 1 0 regwrite_enable $end
$var reg 32 n" ALU_out_out [31:0] $end
$var reg 32 o" DATA_2_out [31:0] $end
$var reg 1 @ MUX3_select_out $end
$var reg 3 p" func_3_out [2:0] $end
$var reg 1 # mem_read_out $end
$var reg 1 $ mem_write_out $end
$var reg 5 q" rd_out [4:0] $end
$var reg 1 4 regwrite_enable_out $end
$upscope $end
$scope module ID $end
$var wire 1 ! clk $end
$var wire 1 ) reset $end
$var wire 1 r" write_enable $end
$var wire 5 s" write_reg [4:0] $end
$var wire 32 t" write_data [31:0] $end
$var wire 1 5 wite_enable $end
$var wire 1 6 reg_write_enable $end
$var wire 32 u" pc_out [31:0] $end
$var wire 32 v" pc4_out [31:0] $end
$var wire 32 w" pc4 [31:0] $end
$var wire 32 x" pc [31:0] $end
$var wire 1 A mux2_select $end
$var wire 1 C mux1_select $end
$var wire 1 E mem_write_enable $end
$var wire 1 F mem_read_enable $end
$var wire 1 G jump $end
$var wire 32 y" instruction [31:0] $end
$var wire 32 z" immidiate_value [31:0] $end
$var wire 3 {" imm_select [2:0] $end
$var wire 3 |" funct3 [2:0] $end
$var wire 32 }" data2 [31:0] $end
$var wire 32 ~" data1 [31:0] $end
$var wire 1 T branch $end
$var wire 5 !# Rd [4:0] $end
$var wire 1 Z JAL_select $end
$var wire 5 "# AlU_opcode [4:0] $end
$scope module control_unit $end
$var wire 7 ## opcode [6:0] $end
$var wire 32 $# instruction [31:0] $end
$var wire 7 %# funct7 [6:0] $end
$var wire 3 &# funct3 [2:0] $end
$var reg 5 '# AlU_opcode [4:0] $end
$var reg 1 T branch $end
$var reg 3 (# imm_select [2:0] $end
$var reg 1 Z jal_select $end
$var reg 1 G jump $end
$var reg 1 F mem_read $end
$var reg 1 E mem_write $end
$var reg 1 C mux1_select $end
$var reg 1 A mux2_select $end
$var reg 1 )# mux3_select $end
$var reg 1 6 regwrite_enable $end
$upscope $end
$scope module immidiate $end
$var wire 3 *# imm_select [2:0] $end
$var wire 32 +# instruction [31:0] $end
$var reg 32 ,# immediate [31:0] $end
$upscope $end
$scope module register_file $end
$var wire 1 -# R $end
$var wire 5 .# addr1 [4:0] $end
$var wire 5 /# addr2 [4:0] $end
$var wire 1 ! clk $end
$var wire 32 0# data1 [31:0] $end
$var wire 32 1# data2 [31:0] $end
$var wire 1 ) reset $end
$var wire 1 r" write_enable $end
$var wire 5 2# write_reg_addr [4:0] $end
$var wire 32 3# reg_write_data [31:0] $end
$upscope $end
$upscope $end
$scope module ID_EX $end
$var wire 1 ! CLK $end
$var wire 32 4# Immediate [31:0] $end
$var wire 3 5# Instruction_func3 [2:0] $end
$var wire 5 6# alu_select [4:0] $end
$var wire 1 T branch $end
$var wire 32 7# data1 [31:0] $end
$var wire 32 8# data2 [31:0] $end
$var wire 5 9# destination_reg [4:0] $end
$var wire 1 Z jal_select $end
$var wire 1 G jump $end
$var wire 1 F mem_read $end
$var wire 1 E mem_write $end
$var wire 1 C mux1_select $end
$var wire 1 A mux2_select $end
$var wire 1 / mux3_select $end
$var wire 1 6 regwrite_enable $end
$var wire 32 :# PC4 [31:0] $end
$var wire 32 ;# PC [31:0] $end
$var reg 32 <# Immediate_intermediate [31:0] $end
$var reg 32 =# Immediate_out [31:0] $end
$var reg 3 ># Instruction_func3_intermediate [2:0] $end
$var reg 3 ?# Instruction_func3_out [2:0] $end
$var reg 32 @# PC4_intermediate [31:0] $end
$var reg 32 A# PC4_out [31:0] $end
$var reg 32 B# PC_intermediate [31:0] $end
$var reg 32 C# PC_out [31:0] $end
$var reg 5 D# alu_select_intermediate [4:0] $end
$var reg 5 E# alu_select_out [4:0] $end
$var reg 1 F# branch_intermediate $end
$var reg 1 U branch_out $end
$var reg 32 G# data1_intermediate [31:0] $end
$var reg 32 H# data1_out [31:0] $end
$var reg 32 I# data2_intermediate [31:0] $end
$var reg 32 J# data2_out [31:0] $end
$var reg 5 K# destination_reg_intermediate [4:0] $end
$var reg 5 L# destination_reg_out [4:0] $end
$var reg 1 M# jal_select_intermediate $end
$var reg 1 I jal_select_out $end
$var reg 1 N# jump_intermediate $end
$var reg 1 H jump_out $end
$var reg 1 O# mem_read_intermediate $end
$var reg 1 P# mem_read_out $end
$var reg 1 Q# mem_write_intermediate $end
$var reg 1 R# mem_write_out $end
$var reg 1 S# mux1_select_intermediate $end
$var reg 1 D mux1_select_out $end
$var reg 1 T# mux2_select_intermediate $end
$var reg 1 B mux2_select_out $end
$var reg 1 U# mux3_select_intermediate $end
$var reg 1 V# mux3_select_out $end
$var reg 1 W# regwrite_enable_intermediate $end
$var reg 1 X# regwrite_enable_out $end
$upscope $end
$scope module IF $end
$var wire 1 ! CLK $end
$var wire 1 ) RESET $end
$var wire 32 Y# branch_address [31:0] $end
$var wire 1 V branch_control $end
$var wire 1 5 reg_write_enable_out $end
$var wire 5 Z# write_reg_out [4:0] $end
$var wire 32 [# write_data_out [31:0] $end
$var wire 1 3 reg_write_enable $end
$var wire 32 \# pc_out [31:0] $end
$var wire 32 ]# pc4_out [31:0] $end
$var wire 1 ? mux3_select $end
$var wire 32 ^# instruction_out [31:0] $end
$var wire 5 _# Rd [4:0] $end
$var wire 32 `# MEMD [31:0] $end
$var wire 32 a# ALUD [31:0] $end
$var reg 32 b# pc_input [31:0] $end
$scope module instruction_memory1 $end
$var wire 1 ! clk $end
$var wire 1 ) reset $end
$var wire 32 c# PC [31:0] $end
$var reg 32 d# instruction [31:0] $end
$upscope $end
$scope module pc1 $end
$var wire 1 ! CLK $end
$var wire 1 ) RESET $end
$var wire 32 e# pc_in [31:0] $end
$var reg 32 f# pc [31:0] $end
$upscope $end
$upscope $end
$scope module IF_ID $end
$var wire 1 ! CLK $end
$var wire 32 g# PC [31:0] $end
$var wire 32 h# PC4 [31:0] $end
$var wire 32 i# instruction [31:0] $end
$var reg 32 j# PC4_intermediate [31:0] $end
$var reg 32 k# PC4_out [31:0] $end
$var reg 32 l# PC_intermediate [31:0] $end
$var reg 32 m# PC_out [31:0] $end
$var reg 32 n# instruction_intermediate [31:0] $end
$var reg 32 o# instruction_out [31:0] $end
$upscope $end
$scope module MA $end
$var wire 32 p# alud [31:0] $end
$var wire 32 q# alud_out [31:0] $end
$var wire 1 ! clk $end
$var wire 32 r# data2 [31:0] $end
$var wire 3 s# func3 [2:0] $end
$var wire 1 # mem_read $end
$var wire 1 $ mem_write $end
$var wire 1 @ mux3_select $end
$var wire 1 @ mux3_select_out $end
$var wire 5 t# rd [4:0] $end
$var wire 5 u# rd_out [4:0] $end
$var wire 1 4 regwrite_enable $end
$var wire 1 4 regwrite_enable_out $end
$var wire 1 " reset $end
$var wire 32 v# read_data [31:0] $end
$scope module data_memory $end
$var wire 3 w# func3 [2:0] $end
$var reg 1 x# mem_read_access $end
$var reg 1 y# mem_write_access $end
$var integer 32 z# i [31:0] $end
$scope task dump_memory $end
$var integer 32 {# j [31:0] $end
$upscope $end
$upscope $end
$upscope $end
$scope module MA_WB $end
$var wire 32 |# ALU_out [31:0] $end
$var wire 1 ! CLK $end
$var wire 1 @ MUX3_select $end
$var wire 5 }# rd [4:0] $end
$var wire 32 ~# read_data [31:0] $end
$var wire 1 4 regwrite_enable $end
$var reg 32 !$ ALU_out_out [31:0] $end
$var reg 1 ? MUX3_select_out $end
$var reg 5 "$ rd_out [4:0] $end
$var reg 32 #$ read_data_out [31:0] $end
$var reg 1 3 regwrite_enable_out $end
$upscope $end
$upscope $end
$upscope $end
$enddefinitions $end
$comment Show the parameter values. $end
$dumpall
$end
#0
$dumpvars
bx #$
bx "$
bx !$
bx ~#
bx }#
bx |#
bx {#
bx z#
xy#
xx#
bx w#
bx v#
bx u#
bx t#
bx s#
bx r#
bx q#
bx p#
bx o#
bx n#
bx m#
bx l#
bx k#
bx j#
bx i#
bx h#
bx g#
bx f#
bx e#
bx d#
bx c#
bx b#
bx a#
bx `#
bx _#
bx ^#
bx ]#
bx \#
bx [#
bx Z#
bx Y#
xX#
xW#
xV#
xU#
xT#
xS#
xR#
xQ#
xP#
xO#
xN#
xM#
bx L#
bx K#
bx J#
bx I#
bx H#
bx G#
xF#
bx E#
bx D#
bx C#
bx B#
bx A#
bx @#
bx ?#
bx >#
bx =#
bx <#
bx ;#
bx :#
bx 9#
bx 8#
bx 7#
bx 6#
bx 5#
bx 4#
bx 3#
bx 2#
bx 1#
bx 0#
bx /#
bx .#
z-#
bx ,#
bx +#
bx *#
x)#
bx (#
bx '#
bx &#
bx %#
bx $#
bx ##
bx "#
bx !#
bx ~"
bx }"
bx |"
bx {"
bx z"
bx y"
bx x"
bx w"
bx v"
bx u"
bx t"
bx s"
zr"
bx q"
bx p"
bx o"
bx n"
bx m"
bx l"
bx k"
bx j"
bx i"
bx h"
bx g"
bx f"
bx e"
bx d"
bx c"
bx b"
bx a"
bx `"
bx _"
bx ^"
bx ]"
bx \"
bx ["
b0x Z"
bx Y"
bx X"
b0x W"
bx V"
bx U"
bx T"
bx S"
bx R"
bx Q"
bx P"
bx O"
bx N"
bx M"
bx L"
bx K"
bx J"
bx I"
bx H"
bx G"
bx F"
bx E"
bx D"
bx C"
bx B"
bx A"
bx @"
bx ?"
bx >"
bx ="
bx <"
bx ;"
bx :"
bx 9"
bx 8"
bx 7"
bx 6"
bx 5"
bx 4"
bx 3"
bx 2"
bx 1"
bx 0"
bx /"
bx ."
bx -"
bx ,"
bx +"
bx *"
bx )"
bx ("
bx '"
bx &"
bx %"
bx $"
bx #"
bx ""
bx !"
bx ~
bx }
bx |
bx {
bx z
bx y
b0x x
bx w
b0x v
bx u
bx t
bx s
bx r
bx q
bx p
bx o
bx n
bx m
bx l
bx k
bx j
bx i
bx h
bx g
bx f
bx e
bx d
bx c
bx b
bx a
bx `
bx _
bx ^
bx ]
bx \
bx [
xZ
bx Y
bx X
bx W
xV
xU
xT
bx S
bx R
bx Q
bx P
bx O
bx N
bx M
bx L
bx K
bx J
xI
xH
xG
xF
xE
xD
xC
xB
xA
x@
x?
bx >
bx =
bx <
bx ;
bx :
bx 9
bx 8
bx 7
x6
x5
x4
x3
bx 2
bx 1
x0
z/
x.
x-
x,
bx +
bx *
1)
x(
bx '
bx &
bx %
x$
x#
z"
0!
$end
#8000
zU#
b0 b#
b0 e#
1!
#9000
b100 =
b100 ]#
b100 h#
b0 ;
b0 \#
b0 c#
b0 f#
b0 g#
0)
#16000
0!
#24000
b100 b#
b100 e#
b101000000000000010010011 K
b101000000000000010010011 ^#
b101000000000000010010011 d#
b101000000000000010010011 i#
zV#
b100 j#
b0 l#
1!
#25000
b1000 =
b1000 ]#
b1000 h#
b100 ;
b100 \#
b100 c#
b100 f#
b100 g#
#32000
0!
#40000
b1000 j#
b100 l#
b101000000000000010010011 n#
b100 >
b100 v"
b100 w"
b100 :#
b100 k#
b0 <
b0 u"
b0 x"
b0 ;#
b0 m#
b10100000000000100010011 K
b10100000000000100010011 ^#
b10100000000000100010011 d#
b10100000000000100010011 i#
b1000 b#
b1000 e#
1!
#41000
b1100 =
b1100 ]#
b1100 h#
b1000 ;
b1000 \#
b1000 c#
b1000 f#
b1000 g#
#48000
0!
#56000
b0 %#
b0 &#
b10011 ##
b1 W
b1 !#
b1 9#
b0 M
b0 |"
b0 5#
b0 P
b0 }"
b0 1#
b0 8#
b1010 /#
b0 R
b0 ~"
b0 0#
b0 7#
b0 .#
b1100 b#
b1100 e#
b1000001000000110110011 K
b1000001000000110110011 ^#
b1000001000000110110011 d#
b1000001000000110110011 i#
b0 B#
b100 @#
b1100 j#
b1000 l#
b10100000000000100010011 n#
b1000 >
b1000 v"
b1000 w"
b1000 :#
b1000 k#
b100 <
b100 u"
b100 x"
b100 ;#
b100 m#
b101000000000000010010011 J
b101000000000000010010011 y"
b101000000000000010010011 $#
b101000000000000010010011 +#
b101000000000000010010011 o#
1!
#57000
b10000 =
b10000 ]#
b10000 h#
b1100 ;
b1100 \#
b1100 c#
b1100 f#
b1100 g#
#64000
0!
#72000
b10 W
b10 !#
b10 9#
b101 /#
b10000 j#
b1100 l#
b1000001000000110110011 n#
b1100 >
b1100 v"
b1100 w"
b1100 :#
b1100 k#
b1000 <
b1000 u"
b1000 x"
b1000 ;#
b1000 m#
b10100000000000100010011 J
b10100000000000100010011 y"
b10100000000000100010011 $#
b10100000000000100010011 +#
b10100000000000100010011 o#
b1 K#
b0 >#
b0 I#
b0 G#
b100 B#
b1000 @#
b0 X
b0 i
b0 C#
b100 Y
b100 h
b100 A#
b1000000001000001000001000110011 K
b1000000001000001000001000110011 ^#
b1000000001000001000001000110011 d#
b1000000001000001000001000110011 i#
b10000 b#
b10000 e#
1!
#73000
b10100 =
b10100 ]#
b10100 h#
b10000 ;
b10000 \#
b10000 c#
b10000 f#
b10000 g#
#80000
0!
#88000
b10 L
b10 z"
b10 ,#
b10 4#
b0x00 &"
b0x00 0"
b0 a
b0 "#
b0 '#
b0 6#
b0 {"
b0 (#
b0 *#
0Z
0G
0T
0E
0F
16
0)#
0A
0C
0V
b0x00 k
b0x00 r
b0x00 +"
b0x00 ."
b0x00 1"
b0x00 4"
b0x00 9"
b0x00 ="
b0x00 A"
b0x00 E"
b0x00 I"
b0x00 L"
b0x00 O"
b0x00 R"
b0x00 U"
b0x00 X"
b0x00 ["
b0x00 ^"
b0x00 a"
b0x00 d"
b110011 ##
b11 W
b11 !#
b11 9#
b10 /#
b1 .#
b10100 b#
b10100 e#
b1100000010000000100011 K
b1100000010000000100011 ^#
b1100000010000000100011 d#
b1100000010000000100011 i#
b10 K#
b1000 B#
b1100 @#
b1 L#
b0 ?#
b0 O
b0 c
b0 k"
b0 Q
b0 m
b0 h"
b0 J#
b0 S
b0 n
b0 i"
b0 H#
b100 X
b100 i
b100 C#
b1000 Y
b1000 h
b1000 A#
b10100 j#
b10000 l#
b1000000001000001000001000110011 n#
b10000 >
b10000 v"
b10000 w"
b10000 :#
b10000 k#
b1100 <
b1100 u"
b1100 x"
b1100 ;#
b1100 m#
b1000001000000110110011 J
b1000001000000110110011 y"
b1000001000000110110011 $#
b1000001000000110110011 +#
b1000001000000110110011 o#
1!
#89000
b11000 =
b11000 ]#
b11000 h#
b10100 ;
b10100 \#
b10100 c#
b10100 f#
b10100 g#
#96000
0!
#104000
b10000 a
b10000 "#
b10000 '#
b10000 6#
b0x000 &"
b0x000 0"
b100000 %#
b100 W
b100 !#
b100 9#
b10000000010 L
b10000000010 z"
b10000000010 ,#
b10000000010 4#
b0x000 k
b0x000 r
b0x000 +"
b0x000 ."
b0x000 1"
b0x000 4"
b0x000 9"
b0x000 ="
b0x000 A"
b0x000 E"
b0x000 I"
b0x000 L"
b0x000 O"
b0x000 R"
b0x000 U"
b0x000 X"
b0x000 ["
b0x000 ^"
b0x000 a"
b0x000 d"
b11000 j#
b10100 l#
b1100000010000000100011 n#
b10100 >
b10100 v"
b10100 w"
b10100 :#
b10100 k#
b10000 <
b10000 u"
b10000 x"
b10000 ;#
b10000 m#
b1000000001000001000001000110011 J
b1000000001000001000001000110011 y"
b1000000001000001000001000110011 $#
b1000000001000001000001000110011 +#
b1000000001000001000001000110011 o#
b11 K#
b10 <#
b1100 B#
b10000 @#
0M#
0N#
0F#
0Q#
0O#
1W#
0T#
0S#
b0 D#
b10 L#
b1000 X
b1000 i
b1000 C#
b1100 Y
b1100 h
b1100 A#
b0 &
b0 \
b0 o"
b0 r#
b10000000010001000100011 K
b10000000010001000100011 ^#
b10000000010001000100011 d#
b10000000010001000100011 i#
b11000 b#
b11000 e#
1!
#105000
b11100 =
b11100 ]#
b11100 h#
b11000 ;
b11000 \#
b11000 c#
b11000 f#
b11000 g#
#112000
0!
#120000
b0 ""
b0 C"
b0 #"
b0 ?"
b0 $"
b0 ;"
b0 x
b0 W"
b0 v
b0 Z"
b1100 ^
b1100 p
b1100 *"
b1100 j"
b1100 Y#
b0 &"
b0 0"
b0 D"
b0 H"
b0 @"
b0 <"
b1100 %"
b1100 K"
b1100 '"
b1100 f"
b1100 ("
b1100 -"
b0 {
b0 8"
b1100 z
b1100 T"
b1100 y
b1100 ]"
b1100 u
b1100 `"
b1100 w
b1100 c"
b0 j
b0 s
b0 ,"
b0 /"
b0 2"
b0 5"
b0 7"
b0 :"
b0 >"
b0 B"
b0 F"
b0 J"
b0 M"
b0 P"
b0 S"
b0 V"
b0 Y"
b0 \"
b0 _"
b0 b"
b0 e"
b1100 k
b1100 r
b1100 +"
b1100 ."
b1100 1"
b1100 4"
b1100 9"
b1100 ="
b1100 A"
b1100 E"
b1100 I"
b1100 L"
b1100 O"
b1100 R"
b1100 U"
b1100 X"
b1100 ["
b1100 ^"
b1100 a"
b1100 d"
b10000 b
b10000 q
b0 %#
b10 &#
b100011 ##
b0 W
b0 !#
b0 9#
b10 M
b10 |"
b10 5#
b11 /#
b0 .#
b11 L
b11 z"
b11 ,#
b11 4#
b11100 b#
b11100 e#
b10001010000011 K
b10001010000011 ^#
b10001010000011 d#
b10001010000011 i#
b100 K#
b10000000010 <#
b10000 B#
b10100 @#
b10000 D#
b11 L#
b10 [
b10 l
b10 =#
b1100 X
b1100 i
b1100 C#
b10000 Y
b10000 h
b10000 A#
0I
0H
0U
0R#
0P#
1X#
0B
0D
b0 ]
b0 o
b0 )"
b0 E#
b11100 j#
b11000 l#
b10000000010001000100011 n#
b11000 >
b11000 v"
b11000 w"
b11000 :#
b11000 k#
b10100 <
b10100 u"
b10100 x"
b10100 ;#
b10100 m#
b1100000010000000100011 J
b1100000010000000100011 y"
b1100000010000000100011 $#
b1100000010000000100011 +#
b1100000010000000100011 o#
1!
#121000
b100000 =
b100000 ]#
b100000 h#
b11100 ;
b11100 \#
b11100 c#
b11100 f#
b11100 g#
#128000
0!
#136000
b10000 %"
b10000 K"
b10000 ^
b10000 p
b10000 *"
b10000 j"
b10000 Y#
b10000 '"
b10000 f"
b100 W
b100 !#
b100 9#
b100 /#
b100 L
b100 z"
b100 ,#
b100 4#
b10000 ("
b10000 -"
b10000 z
b10000 T"
b10000 y
b10000 ]"
b10000 u
b10000 `"
b10000 w
b10000 c"
b10000 k
b10000 r
b10000 +"
b10000 ."
b10000 1"
b10000 4"
b10000 9"
b10000 ="
b10000 A"
b10000 E"
b10000 I"
b10000 L"
b10000 O"
b10000 R"
b10000 U"
b10000 X"
b10000 ["
b10000 ^"
b10000 a"
b10000 d"
b10100 b
b10100 q
b100000 j#
b11100 l#
b10001010000011 n#
b11100 >
b11100 v"
b11100 w"
b11100 :#
b11100 k#
b11000 <
b11000 u"
b11000 x"
b11000 ;#
b11000 m#
b10000000010001000100011 J
b10000000010001000100011 y"
b10000000010001000100011 $#
b10000000010001000100011 +#
b10000000010001000100011 o#
b0 K#
b10 >#
b11 <#
b10100 B#
b11000 @#
b100 L#
b10000000010 [
b10000000010 l
b10000000010 =#
b10000 X
b10000 i
b10000 C#
b10100 Y
b10100 h
b10100 A#
b10000 ]
b10000 o
b10000 )"
b10000 E#
b1100 %
b1100 `
b1100 n"
b1100 p#
b1100 q#
b1100 |#
b10000000010001100000011 K
b10000000010001100000011 ^#
b10000000010001100000011 d#
b10000000010001100000011 i#
b100000 b#
b100000 e#
1!
#137000
b100100 =
b100100 ]#
b100100 h#
b100000 ;
b100000 \#
b100000 c#
b100000 f#
b100000 g#
#144000
0!
