verilog/CPU/dump.vcd
$date
	Mon Feb 17 09:34:05 2025
$end
$version
	Icarus Verilog
$end
$timescale
	1ps
$end
$scope module CPUtb $end
$scope module mycpu $end
$scope module MA $end
$scope module data_memory $end
$var wire 1 ! clk $end
$upscope $end
$upscope $end
$upscope $end
$upscope $end
$scope module CPUtb $end
$scope module mycpu $end
$scope module MA $end
$scope module data_memory $end
$var wire 1 " reset $end
$upscope $end
$upscope $end
$upscope $end
$upscope $end
$scope module CPUtb $end
$scope module mycpu $end
$scope module MA $end
$scope module data_memory $end
$var wire 1 # mem_read $end
$upscope $end
$upscope $end
$upscope $end
$upscope $end
$scope module CPUtb $end
$scope module mycpu $end
$scope module MA $end
$scope module data_memory $end
$var wire 1 $ mem_write $end
$upscope $end
$upscope $end
$upscope $end
$upscope $end
$scope module CPUtb $end
$scope module mycpu $end
$scope module MA $end
$scope module data_memory $end
$var wire 32 % mem_address [31:0] $end
$upscope $end
$upscope $end
$upscope $end
$upscope $end
$scope module CPUtb $end
$scope module mycpu $end
$scope module MA $end
$scope module data_memory $end
$var wire 32 & data_in [31:0] $end
$upscope $end
$upscope $end
$upscope $end
$upscope $end
$scope module CPUtb $end
$scope module mycpu $end
$scope module MA $end
$scope module data_memory $end
$var reg 32 ' data_out [31:0] $end
$upscope $end
$upscope $end
$upscope $end
$upscope $end
$scope module CPUtb $end
$scope module mycpu $end
$scope module MA $end
$scope module data_memory $end
$var reg 1 ( busywait $end
$upscope $end
$upscope $end
$upscope $end
$upscope $end
$scope module CPUtb $end
$var reg 1 ! CLK $end
$var reg 1 ) reset $end
$var integer 32 * i [31:0] $end
$scope module mycpu $end
$var wire 1 ! CLK $end
$var wire 3 + Instruction_func3_ex [2:0] $end
$var wire 1 ) RESET $end
$var wire 1 , mem_read_enable_ex $end
$var wire 1 - mem_write_enable_ex $end
$var wire 1 " reset $end
$var wire 5 . write_reg_out_if [4:0] $end
$var wire 32 / write_data_out_if [31:0] $end
$var wire 1 0 regwrite_enable_wb $end
$var wire 1 1 regwrite_enable_ma $end
$var wire 1 2 regwrite_enable_ex_out $end
$var wire 1 3 regwrite_enable_ex $end
$var wire 1 4 reg_write_enable_out_if $end
$var wire 1 5 reg_write_enable_id $end
$var wire 32 6 read_data_wb [31:0] $end
$var wire 32 7 read_data_ma [31:0] $end
$var wire 5 8 rd_wb [4:0] $end
$var wire 5 9 rd_ma [4:0] $end
$var wire 32 : pc_out_if [31:0] $end
$var wire 32 ; pc_out_id [31:0] $end
$var wire 32 < pc4_out_if [31:0] $end
$var wire 32 = pc4_out_id [31:0] $end
$var wire 1 > mux3_select_wb $end
$var wire 1 ? mux3_select_ma $end
$var wire 1 @ mux3_select_id $end
$var wire 1 A mux3_select_ex_out $end
$var wire 1 B mux3_select_ex $end
$var wire 1 C mux2_select_id $end
$var wire 1 D mux2_select_ex $end
$var wire 1 E mux1_select_id $end
$var wire 1 F mux1_select_ex $end
$var wire 1 $ mem_write_ma $end
$var wire 1 G mem_write_enable_id $end
$var wire 1 # mem_read_ma $end
$var wire 1 H mem_read_enable_id $end
$var wire 1 I jump_id $end
$var wire 1 J jump_ex $end
$var wire 1 K jal_select_ex $end
$var wire 32 L instruction_out_ip [31:0] $end
$var wire 32 M instruction_out_if [31:0] $end
$var wire 32 N immidiate_value_id [31:0] $end
$var wire 3 O funct3_id [2:0] $end
$var wire 3 P func3_ma [2:0] $end
$var wire 5 Q destination_reg_ex_out [4:0] $end
$var wire 5 R destination_reg_ex [4:0] $end
$var wire 32 S data2_out_ex [31:0] $end
$var wire 32 T data2_id [31:0] $end
$var wire 32 U data2_ex [31:0] $end
$var wire 32 V data1_id [31:0] $end
$var wire 32 W data1_ex [31:0] $end
$var wire 1 X branch_id $end
$var wire 1 Y branch_ex $end
$var wire 1 Z branch_control_out_ex $end
$var wire 5 [ Rd_id [4:0] $end
$var wire 32 \ PC_ex [31:0] $end
$var wire 32 ] PC4_ex [31:0] $end
$var wire 1 ^ JAL_select_id $end
$var wire 32 _ Immediate_ex [31:0] $end
$var wire 32 ` DATA_2_ma [31:0] $end
$var wire 5 a ALU_select_ex [4:0] $end
$var wire 32 b ALU_result_ex [31:0] $end
$var wire 32 c ALU_out_wb [31:0] $end
$var wire 32 d ALU_out_ma [31:0] $end
$var wire 5 e ALU_opcode_id [4:0] $end
$var wire 32 f ALUD_ex [31:0] $end
$scope module EX $end
$var wire 1 g EX_MEM_memRead $end
$var wire 5 h EX_MEM_rd [4:0] $end
$var wire 1 i EX_MEM_regWrite $end
$var wire 1 j MEM_WB_memRead $end
$var wire 5 k MEM_WB_rd [4:0] $end
$var wire 1 l MEM_WB_regWrite $end
$var wire 32 m data2_out [31:0] $end
$var wire 3 n funct3 [2:0] $end
$var wire 3 o funct3_out [2:0] $end
$var wire 1 , memory_read_enable $end
$var wire 1 , memory_read_enable_out $end
$var wire 1 - memory_write_enable $end
$var wire 1 - memory_write_enable_out $end
$var wire 1 A mux3_select_out $end
$var wire 5 p rd_out [4:0] $end
$var wire 1 2 regwrite_enable_out $end
$var wire 5 q rs1 [4:0] $end
$var wire 5 r rs2 [4:0] $end
$var wire 1 s stall $end
$var wire 1 3 regwrite_enable $end
$var wire 5 t rd [4:0] $end
$var wire 32 u pc4 [31:0] $end
$var wire 32 v pc [31:0] $end
$var wire 1 B mux3_select $end
$var wire 1 D mux2_select $end
$var wire 1 F mux1_select $end
$var wire 1 J jump $end
$var wire 1 K jal_select $end
$var wire 32 w immediate [31:0] $end
$var wire 2 x forwardB [1:0] $end
$var wire 2 y forwardA [1:0] $end
$var wire 32 z data2 [31:0] $end
$var wire 32 { data1 [31:0] $end
$var wire 1 Z branch_control_out $end
$var wire 1 Y branch $end
$var wire 5 | ALU_select [4:0] $end
$var wire 32 } ALU_result [31:0] $end
$var wire 32 ~ ALUD [31:0] $end
$var reg 32 !" operandA [31:0] $end
$var reg 32 "" operandB [31:0] $end
$scope module ALU_unit1 $end
$var wire 32 #" data1 [31:0] $end
$var wire 32 $" data2 [31:0] $end
$var wire 32 %" result06 [31:0] $end
$var wire 32 &" result18 [31:0] $end
$var wire 32 '" result17 [31:0] $end
$var wire 32 (" result16 [31:0] $end
$var wire 32 )" result15 [31:0] $end
$var wire 32 *" result14 [31:0] $end
$var wire 32 +" result13 [31:0] $end
$var wire 32 ," result12 [31:0] $end
$var wire 32 -" result11 [31:0] $end
$var wire 32 ." result10 [31:0] $end
$var wire 32 /" result09 [31:0] $end
$var wire 32 0" result08 [31:0] $end
$var wire 32 1" result07 [31:0] $end
$var wire 32 2" result05 [31:0] $end
$var wire 32 3" result04 [31:0] $end
$var wire 32 4" result03 [31:0] $end
$var wire 32 5" result02 [31:0] $end
$var wire 32 6" result01 [31:0] $end
$var wire 32 7" result00 [31:0] $end
$var wire 5 8" Opcode [4:0] $end
$var reg 32 9" result [31:0] $end
$scope module add_unit $end
$var wire 32 :" data1 [31:0] $end
$var wire 32 ;" data2 [31:0] $end
$var wire 32 <" result [31:0] $end
$upscope $end
$scope module and_unit $end
$var wire 32 =" data1 [31:0] $end
$var wire 32 >" data2 [31:0] $end
$var wire 32 ?" result [31:0] $end
$upscope $end
$scope module div_unit $end
$var wire 32 @" data1 [31:0] $end
$var wire 32 A" data2 [31:0] $end
$var wire 32 B" result [31:0] $end
$upscope $end
$scope module divu_unit $end
$var wire 32 C" data1 [31:0] $end
$var wire 32 D" data2 [31:0] $end
$var wire 32 E" result [31:0] $end
$upscope $end
$scope module forward_unit $end
$var wire 32 F" data2 [31:0] $end
$var wire 32 G" result [31:0] $end
$upscope $end
$scope module mul_unit $end
$var wire 32 H" data1 [31:0] $end
$var wire 32 I" data2 [31:0] $end
$var wire 32 J" result [31:0] $end
$var reg 65 K" result1 [64:0] $end
$upscope $end
$scope module mulh_unit $end
$var wire 32 L" data1 [31:0] $end
$var wire 32 M" data2 [31:0] $end
$var wire 32 N" result [31:0] $end
$var reg 65 O" result1 [64:0] $end
$upscope $end
$scope module mulhsu_unit $end
$var wire 32 P" data1 [31:0] $end
$var wire 32 Q" data2 [31:0] $end
$var wire 32 R" result [31:0] $end
$var reg 64 S" result1 [63:0] $end
$upscope $end
$scope module mulhu_unit $end
$var wire 32 T" data1 [31:0] $end
$var wire 32 U" data2 [31:0] $end
$var wire 32 V" result [31:0] $end
$var reg 64 W" result1 [63:0] $end
$upscope $end
$scope module or_unit $end
$var wire 32 X" data1 [31:0] $end
$var wire 32 Y" data2 [31:0] $end
$var wire 32 Z" result [31:0] $end
$upscope $end
$scope module rem_unit $end
$var wire 32 [" data1 [31:0] $end
$var wire 32 \" data2 [31:0] $end
$var wire 32 ]" result [31:0] $end
$upscope $end
$scope module remu_unit $end
$var wire 32 ^" data1 [31:0] $end
$var wire 32 _" data2 [31:0] $end
$var wire 32 `" result [31:0] $end
$upscope $end
$scope module sll_unit $end
$var wire 32 a" data1 [31:0] $end
$var wire 32 b" data2 [31:0] $end
$var wire 32 c" result [31:0] $end
$upscope $end
$scope module slt_unit $end
$var wire 32 d" data1 [31:0] $end
$var wire 32 e" data2 [31:0] $end
$var wire 32 f" result [31:0] $end
$upscope $end
$scope module sltu_unit $end
$var wire 32 g" data1 [31:0] $end
$var wire 32 h" data2 [31:0] $end
$var wire 32 i" result [31:0] $end
$upscope $end
$scope module sra_unit $end
$var wire 32 j" data1 [31:0] $end
$var wire 32 k" data2 [31:0] $end
$var wire 32 l" result [31:0] $end
$upscope $end
$scope module srl_unit $end
$var wire 32 m" data1 [31:0] $end
$var wire 32 n" data2 [31:0] $end
$var wire 32 o" result [31:0] $end
$upscope $end
$scope module sub_unit $end
$var wire 32 p" data1 [31:0] $end
$var wire 32 q" data2 [31:0] $end
$var wire 32 r" result [31:0] $end
$upscope $end
$scope module xor_unit $end
$var wire 32 s" data1 [31:0] $end
$var wire 32 t" data2 [31:0] $end
$var wire 32 u" result [31:0] $end
$upscope $end
$upscope $end
$scope module FU $end
$var wire 5 v" EX_MEM_rd [4:0] $end
$var wire 1 i EX_MEM_regWrite $end
$var wire 5 w" ID_EX_rs1 [4:0] $end
$var wire 5 x" ID_EX_rs2 [4:0] $end
$var wire 5 y" MEM_WB_rd [4:0] $end
$var wire 1 l MEM_WB_regWrite $end
$var reg 2 z" forwardA [1:0] $end
$var reg 2 {" forwardB [1:0] $end
$upscope $end
$scope module HDU $end
$var wire 1 g EX_MEM_memRead $end
$var wire 5 |" EX_MEM_rd [4:0] $end
$var wire 5 }" ID_EX_rs1 [4:0] $end
$var wire 5 ~" ID_EX_rs2 [4:0] $end
$var wire 1 j MEM_WB_memRead $end
$var wire 5 !# MEM_WB_rd [4:0] $end
$var reg 1 s stall $end
$upscope $end
$scope module branch_control1 $end
$var wire 32 "# data1 [31:0] $end
$var wire 32 ## data2 [31:0] $end
$var wire 3 $# funct3 [2:0] $end
$var wire 1 J jump $end
$var wire 1 Y branch $end
$var reg 1 Z isJumpOrBranch $end
$upscope $end
$upscope $end
$scope module EX_MA $end
$var wire 32 %# ALU_out [31:0] $end
$var wire 1 ! CLK $end
$var wire 32 &# DATA_2 [31:0] $end
$var wire 1 A MUX3_select $end
$var wire 3 '# func_3 [2:0] $end
$var wire 1 , mem_read $end
$var wire 1 - mem_write $end
$var wire 5 (# rd [4:0] $end
$var wire 1 2 regwrite_enable $end
$var reg 32 )# ALU_out_out [31:0] $end
$var reg 32 *# DATA_2_out [31:0] $end
$var reg 1 ? MUX3_select_out $end
$var reg 3 +# func_3_out [2:0] $end
$var reg 1 # mem_read_out $end
$var reg 1 $ mem_write_out $end
$var reg 5 ,# rd_out [4:0] $end
$var reg 1 1 regwrite_enable_out $end
$upscope $end
$scope module ID $end
$var wire 1 ! clk $end
$var wire 1 ) reset $end
$var wire 5 -# write_reg [4:0] $end
$var wire 32 .# write_data [31:0] $end
$var wire 1 4 wite_enable $end
$var wire 1 5 reg_write_enable $end
$var wire 32 /# pc_out [31:0] $end
$var wire 32 0# pc4_out [31:0] $end
$var wire 32 1# pc4 [31:0] $end
$var wire 32 2# pc [31:0] $end
$var wire 1 @ mux3_select $end
$var wire 1 C mux2_select $end
$var wire 1 E mux1_select $end
$var wire 1 G mem_write_enable $end
$var wire 1 H mem_read_enable $end
$var wire 1 I jump $end
$var wire 32 3# instruction [31:0] $end
$var wire 32 4# immidiate_value [31:0] $end
$var wire 3 5# imm_select [2:0] $end
$var wire 3 6# funct3 [2:0] $end
$var wire 32 7# data2 [31:0] $end
$var wire 32 8# data1 [31:0] $end
$var wire 1 X branch $end
$var wire 5 9# Rd [4:0] $end
$var wire 1 ^ JAL_select $end
$var wire 5 :# AlU_opcode [4:0] $end
$scope module control_unit $end
$var wire 7 ;# opcode [6:0] $end
$var wire 32 <# instruction [31:0] $end
$var wire 7 =# funct7 [6:0] $end
$var wire 3 ># funct3 [2:0] $end
$var reg 5 ?# AlU_opcode [4:0] $end
$var reg 1 X branch $end
$var reg 3 @# imm_select [2:0] $end
$var reg 1 ^ jal_select $end
$var reg 1 I jump $end
$var reg 1 H mem_read $end
$var reg 1 G mem_write $end
$var reg 1 E mux1_select $end
$var reg 1 C mux2_select $end
$var reg 1 @ mux3_select $end
$var reg 1 5 regwrite_enable $end
$upscope $end
$scope module immidiate $end
$var wire 3 A# imm_select [2:0] $end
$var wire 32 B# instruction [31:0] $end
$var reg 32 C# immediate [31:0] $end
$upscope $end
$scope module register_file $end
$var wire 1 D# R $end
$var wire 5 E# addr1 [4:0] $end
$var wire 5 F# addr2 [4:0] $end
$var wire 1 ! clk $end
$var wire 32 G# data1 [31:0] $end
$var wire 32 H# data2 [31:0] $end
$var wire 1 ) reset $end
$var wire 5 I# write_reg_addr [4:0] $end
$var wire 1 4 write_enable $end
$var wire 32 J# reg_write_data [31:0] $end
$upscope $end
$upscope $end
$scope module ID_EX $end
$var wire 1 ! CLK $end
$var wire 32 K# Immediate [31:0] $end
$var wire 3 L# Instruction_func3 [2:0] $end
$var wire 5 M# alu_select [4:0] $end
$var wire 1 X branch $end
$var wire 32 N# data1 [31:0] $end
$var wire 32 O# data2 [31:0] $end
$var wire 5 P# destination_reg [4:0] $end
$var wire 1 ^ jal_select $end
$var wire 1 I jump $end
$var wire 1 H mem_read $end
$var wire 1 G mem_write $end
$var wire 1 E mux1_select $end
$var wire 1 C mux2_select $end
$var wire 1 @ mux3_select $end
$var wire 1 5 regwrite_enable $end
$var wire 32 Q# PC4 [31:0] $end
$var wire 32 R# PC [31:0] $end
$var reg 32 S# Immediate_out [31:0] $end
$var reg 3 T# Instruction_func3_out [2:0] $end
$var reg 32 U# PC4_out [31:0] $end
$var reg 32 V# PC_out [31:0] $end
$var reg 5 W# alu_select_out [4:0] $end
$var reg 1 Y branch_out $end
$var reg 32 X# data1_out [31:0] $end
$var reg 32 Y# data2_out [31:0] $end
$var reg 5 Z# destination_reg_out [4:0] $end
$var reg 1 K jal_select_out $end
$var reg 1 J jump_out $end
$var reg 1 [# mem_read_out $end
$var reg 1 \# mem_write_out $end
$var reg 1 F mux1_select_out $end
$var reg 1 D mux2_select_out $end
$var reg 1 B mux3_select_out $end
$var reg 1 3 regwrite_enable_out $end
$upscope $end
$scope module IF $end
$var wire 1 ! CLK $end
$var wire 1 ) RESET $end
$var wire 32 ]# branch_address [31:0] $end
$var wire 1 Z branch_control $end
$var wire 1 4 reg_write_enable_out $end
$var wire 5 ^# write_reg_out [4:0] $end
$var wire 32 _# write_data_out [31:0] $end
$var wire 1 0 reg_write_enable $end
$var wire 32 `# pc_out [31:0] $end
$var wire 32 a# pc4_out [31:0] $end
$var wire 1 > mux3_select $end
$var wire 32 b# instruction_out [31:0] $end
$var wire 5 c# Rd [4:0] $end
$var wire 32 d# MEMD [31:0] $end
$var wire 32 e# ALUD [31:0] $end
$var reg 32 f# pc_input [31:0] $end
$scope module instruction_memory1 $end
$var wire 1 ! clk $end
$var wire 1 ) reset $end
$var wire 32 g# PC [31:0] $end
$var reg 32 h# instruction [31:0] $end
$upscope $end
$scope module pc1 $end
$var wire 1 ! CLK $end
$var wire 1 ) RESET $end
$var wire 32 i# pc_in [31:0] $end
$var reg 32 j# pc [31:0] $end
$upscope $end
$upscope $end
$scope module IF_ID $end
$var wire 1 ! CLK $end
$var wire 32 k# PC [31:0] $end
$var wire 32 l# PC4 [31:0] $end
$var wire 32 m# instruction [31:0] $end
$var reg 32 n# PC4_out [31:0] $end
$var reg 32 o# PC_out [31:0] $end
$var reg 32 p# instruction_out [31:0] $end
$upscope $end
$scope module MA $end
$var wire 32 q# alud [31:0] $end
$var wire 32 r# alud_out [31:0] $end
$var wire 1 ! clk $end
$var wire 32 s# data2 [31:0] $end
$var wire 3 t# func3 [2:0] $end
$var wire 1 # mem_read $end
$var wire 1 $ mem_write $end
$var wire 1 ? mux3_select $end
$var wire 1 ? mux3_select_out $end
$var wire 5 u# rd [4:0] $end
$var wire 5 v# rd_out [4:0] $end
$var wire 1 1 regwrite_enable $end
$var wire 1 1 regwrite_enable_out $end
$var wire 1 " reset $end
$var wire 32 w# read_data [31:0] $end
$scope module data_memory $end
$var wire 3 x# func3 [2:0] $end
$var reg 1 y# mem_read_access $end
$var reg 1 z# mem_write_access $end
$var integer 32 {# i [31:0] $end
$scope task dump_memory $end
$var integer 32 |# j [31:0] $end
$upscope $end
$upscope $end
$upscope $end
$scope module MA_WB $end
$var wire 32 }# ALU_out [31:0] $end
$var wire 1 ! CLK $end
$var wire 1 ? MUX3_select $end
$var wire 5 ~# rd [4:0] $end
$var wire 32 !$ read_data [31:0] $end
$var wire 1 1 regwrite_enable $end
$var reg 32 "$ ALU_out_out [31:0] $end
$var reg 1 > MUX3_select_out $end
$var reg 5 #$ rd_out [4:0] $end
$var reg 32 $$ read_data_out [31:0] $end
$var reg 1 0 regwrite_enable_out $end
$upscope $end
$upscope $end
$upscope $end
$scope module CPUtb $end
$scope module mycpu $end
$scope module ID $end
$scope module register_file $end
$var reg 32 %$ \register[0] [31:0] $end
$upscope $end
$upscope $end
$upscope $end
$upscope $end
$scope module CPUtb $end
$scope module mycpu $end
$scope module ID $end
$scope module register_file $end
$var reg 32 &$ \register[1] [31:0] $end
$upscope $end
$upscope $end
$upscope $end
$upscope $end
$scope module CPUtb $end
$scope module mycpu $end
$scope module ID $end
$scope module register_file $end
$var reg 32 '$ \register[2] [31:0] $end
$upscope $end
$upscope $end
$upscope $end
$upscope $end
$scope module CPUtb $end
$scope module mycpu $end
$scope module ID $end
$scope module register_file $end
$var reg 32 ($ \register[3] [31:0] $end
$upscope $end
$upscope $end
$upscope $end
$upscope $end
$scope module CPUtb $end
$scope module mycpu $end
$scope module ID $end
$scope module register_file $end
$var reg 32 )$ \register[4] [31:0] $end
$upscope $end
$upscope $end
$upscope $end
$upscope $end
$scope module CPUtb $end
$scope module mycpu $end
$scope module ID $end
$scope module register_file $end
$var reg 32 *$ \register[5] [31:0] $end
$upscope $end
$upscope $end
$upscope $end
$upscope $end
$scope module CPUtb $end
$scope module mycpu $end
$scope module ID $end
$scope module register_file $end
$var reg 32 +$ \register[6] [31:0] $end
$upscope $end
$upscope $end
$upscope $end
$upscope $end
$scope module CPUtb $end
$scope module mycpu $end
$scope module ID $end
$scope module register_file $end
$var reg 32 ,$ \register[7] [31:0] $end
$upscope $end
$upscope $end
$upscope $end
$upscope $end
$enddefinitions $end
$comment Show the parameter values. $end
$dumpall
$end
#0
$dumpvars
bx ,$
bx +$
bx *$
bx )$
bx ($
bx '$
bx &$
bx %$
bx $$
bx #$
bx "$
bx !$
bx ~#
bx }#
bx |#
bx {#
xz#
xy#
bx x#
bx w#
bx v#
bx u#
bx t#
bx s#
bx r#
bx q#
bx p#
bx o#
bx n#
bx m#
bx l#
bx k#
bx j#
bx i#
bx h#
bx g#
bx f#
bx e#
bx d#
bx c#
bx b#
bx a#
bx `#
bx _#
bx ^#
bx ]#
x\#
x[#
bx Z#
bx Y#
bx X#
bx W#
bx V#
bx U#
bx T#
bx S#
bx R#
bx Q#
bx P#
bx O#
bx N#
bx M#
bx L#
bx K#
bx J#
bx I#
bx H#
bx G#
bx F#
bx E#
zD#
bx C#
bx B#
bx A#
bx @#
bx ?#
bx >#
bx =#
bx <#
bx ;#
bx :#
bx 9#
bx 8#
bx 7#
bx 6#
bx 5#
bx 4#
bx 3#
bx 2#
bx 1#
bx 0#
bx /#
bx .#
bx -#
bx ,#
bx +#
bx *#
bx )#
bx (#
bx '#
bx &#
bx %#
bx $#
bx ##
bx "#
bz !#
bz ~"
bz }"
bz |"
b0 {"
b0 z"
bz y"
bz x"
bz w"
bz v"
bx u"
bx t"
bx s"
bx r"
bx q"
bx p"
bx o"
bx n"
bx m"
bx l"
bx k"
bx j"
b0x i"
bx h"
bx g"
b0x f"
bx e"
bx d"
bx c"
bx b"
bx a"
bx `"
bx _"
bx ^"
bx ]"
bx \"
bx ["
bx Z"
bx Y"
bx X"
bx W"
bx V"
bx U"
bx T"
bx S"
bx R"
bx Q"
bx P"
bx O"
bx N"
bx M"
bx L"
bx K"
bx J"
bx I"
bx H"
bx G"
bx F"
bx E"
bx D"
bx C"
bx B"
bx A"
bx @"
bx ?"
bx >"
bx ="
bx <"
bx ;"
bx :"
bx 9"
bx 8"
bx 7"
bx 6"
bx 5"
bx 4"
bx 3"
bx 2"
bx 1"
bx 0"
bx /"
bx ."
bx -"
bx ,"
bx +"
bx *"
b0x )"
bx ("
b0x '"
bx &"
bx %"
bx $"
bx #"
bx ""
bx !"
bx ~
bx }
bx |
bx {
bx z
b0 y
b0 x
bx w
bx v
bx u
bx t
0s
bz r
bz q
bx p
bx o
bx n
bx m
zl
bz k
zj
zi
bz h
zg
bx f
bx e
bx d
bx c
bx b
bx a
bx `
bx _
x^
bx ]
bx \
bx [
xZ
xY
xX
bx W
bx V
bx U
bx T
bx S
bx R
bx Q
bx P
bx O
bx N
bx M
bx L
xK
xJ
xI
xH
xG
xF
xE
xD
xC
xB
xA
x@
x?
x>
bx =
bx <
bx ;
bx :
bx 9
bx 8
bx 7
bx 6
x5
x4
x3
x2
x1
x0
bx /
bx .
x-
x,
bx +
b1000 *
1)
x(
bx '
bx &
bx %
x$
x#
z"
0!
$end
#8000
b0 f#
b0 i#
b0 ,$
b0 +$
b0 *$
b0 )$
b0 ($
b10 '$
b111 &$
b0 %$
1!
#9000
b100 <
b100 a#
b100 l#
b0 :
b0 `#
b0 g#
b0 j#
b0 k#
0)
#16000
0!
#24000
b100 f#
b100 i#
b1000001000000110110011 M
b1000001000000110110011 b#
b1000001000000110110011 h#
b1000001000000110110011 m#
b100 =
b100 0#
b100 1#
b100 Q#
b100 n#
b0 ;
b0 /#
b0 2#
b0 R#
b0 o#
1!
#25000
b1000 <
b1000 a#
b1000 l#
b100 :
b100 `#
b100 g#
b100 j#
b100 k#
#32000
0!
#40000
b10 N
b10 4#
b10 C#
b10 K#
b0 e
b0 :#
b0 ?#
b0 M#
b0 5#
b0 @#
b0 A#
0^
0I
0X
0G
0H
15
0@
0C
1E
b0 =#
b0 >#
b110011 ;#
b11 [
b11 9#
b11 P#
b0 O
b0 6#
b0 L#
b10 T
b10 7#
b10 H#
b10 O#
b10 F#
b111 V
b111 8#
b111 G#
b111 N#
b1 E#
b1000 =
b1000 0#
b1000 1#
b1000 Q#
b1000 n#
b100 ;
b100 /#
b100 2#
b100 R#
b100 o#
b1000001000000110110011 L
b1000001000000110110011 3#
b1000001000000110110011 <#
b1000001000000110110011 B#
b1000001000000110110011 p#
b0 \
b0 v
b0 V#
b100 ]
b100 u
b100 U#
b1100001000001000110011 M
b1100001000001000110011 b#
b1100001000001000110011 h#
b1100001000001000110011 m#
b1000 f#
b1000 i#
1!
#41000
b1100 <
b1100 a#
b1100 l#
b1000 :
b1000 `#
b1000 g#
b1000 j#
b1000 k#
#48000
0!
#56000
b0 1"
b0 R"
b0 2"
b0 N"
b1110 3"
b1110 J"
b0 )"
b0 f"
b0 '"
b0 i"
b1001 b
b1001 }
b1001 9"
b1001 %#
b1001 ]#
b10 5"
b10 ?"
b1110 S"
b1110 W"
b1110 O"
b1110 K"
b111 4"
b111 Z"
b101 6"
b101 u"
b1000 f
b1000 ~
0Z
b1001 7"
b1001 <"
b11 0"
b11 B"
b11 /"
b11 E"
b10 ,"
b10 G"
b1 ."
b1 ]"
b1 -"
b1 `"
b11100 +"
b11100 c"
b1 *"
b1 l"
b1 &"
b1 o"
b101 ("
b101 r"
b10 ""
b10 $"
b10 ;"
b10 >"
b10 A"
b10 D"
b10 F"
b10 I"
b10 M"
b10 Q"
b10 U"
b10 Y"
b10 \"
b10 _"
b10 b"
b10 e"
b10 h"
b10 k"
b10 n"
b10 q"
b10 t"
b10 ##
b111 !"
b111 #"
b111 :"
b111 ="
b111 @"
b111 C"
b111 H"
b111 L"
b111 P"
b111 T"
b111 X"
b111 ["
b111 ^"
b111 a"
b111 d"
b111 g"
b111 j"
b111 m"
b111 p"
b111 s"
b111 "#
b100 [
b100 9#
b100 P#
b0 T
b0 7#
b0 H#
b0 O#
b11 F#
b11 N
b11 4#
b11 C#
b11 K#
b1100 f#
b1100 i#
bx M
bx b#
bx h#
bx m#
b11 Q
b11 p
b11 (#
b11 R
b11 t
b11 Z#
b0 T#
b10 S
b10 m
b10 &#
b10 U
b10 z
b10 Y#
b111 W
b111 {
b111 X#
b10 _
b10 w
b10 S#
b100 \
b100 v
b100 V#
b1000 ]
b1000 u
b1000 U#
0K
0J
0Y
0\#
0[#
12
13
0A
0B
0D
1F
b0 a
b0 |
b0 8"
b0 W#
b1100 =
b1100 0#
b1100 1#
b1100 Q#
b1100 n#
b1000 ;
b1000 /#
b1000 2#
b1000 R#
b1000 o#
b1100001000001000110011 L
b1100001000001000110011 3#
b1100001000001000110011 <#
b1100001000001000110011 B#
b1100001000001000110011 p#
1!
#57000
b10000 <
b10000 a#
b10000 l#
b1100 :
b1100 `#
b1100 g#
b1100 j#
b1100 k#
#64000
0!
#72000
b0 3"
b0 J"
b0 5"
b0 ?"
b0 K"
b0 O"
b0 W"
b0 S"
b111 b
b111 }
b111 9"
b111 %#
b111 ]#
b111 6"
b111 u"
bx =#
bx >#
bx ;#
bx [
bx 9#
bx P#
bx O
bx 6#
bx L#
bx T
bx 7#
bx H#
bx O#
bx F#
bx V
bx 8#
bx G#
bx N#
bx E#
bx N
bx 4#
bx C#
bx K#
b111 7"
b111 <"
bx 0"
bx B"
bx /"
bx E"
b0 ,"
b0 G"
bx ."
bx ]"
bx -"
bx `"
b111 +"
b111 c"
b111 *"
b111 l"
b111 &"
b111 o"
b111 ("
b111 r"
b0 ""
b0 $"
b0 ;"
b0 >"
b0 A"
b0 D"
b0 F"
b0 I"
b0 M"
b0 Q"
b0 U"
b0 Y"
b0 \"
b0 _"
b0 b"
b0 e"
b0 h"
b0 k"
b0 n"
b0 q"
b0 t"
b0 ##
b1100 f
b1100 ~
b10000 =
b10000 0#
b10000 1#
b10000 Q#
b10000 n#
b1100 ;
b1100 /#
b1100 2#
b1100 R#
b1100 o#
bx L
bx 3#
bx <#
bx B#
bx p#
b100 Q
b100 p
b100 (#
b100 R
b100 t
b100 Z#
b0 S
b0 m
b0 &#
b0 U
b0 z
b0 Y#
b11 _
b11 w
b11 S#
b1000 \
b1000 v
b1000 V#
b1100 ]
b1100 u
b1100 U#
b11 9
b11 ,#
b11 u#
b11 v#
b11 ~#
b10 &
b10 `
b10 *#
b10 s#
b1001 %
b1001 d
b1001 )#
b1001 q#
b1001 r#
b1001 }#
11
0?
b10000 f#
b10000 i#
1!
#73000
b10100 <
b10100 a#
b10100 l#
b10000 :
b10000 `#
b10000 g#
b10000 j#
b10000 k#
#80000
0!
#88000
bx 1"
bx R"
bx 2"
bx N"
bx 3"
bx J"
bx 5"
bx ?"
bx S"
bx W"
bx O"
bx K"
bx 4"
bx Z"
b0x )"
b0x f"
b0x '"
b0x i"
bx b
bx }
bx 9"
bx %#
bx ]#
bx 6"
bx u"
b1001 /
b1001 .#
b1001 J#
b1001 _#
bx ,"
bx G"
bx ""
bx $"
bx ;"
bx >"
bx A"
bx D"
bx F"
bx I"
bx M"
bx Q"
bx U"
bx Y"
bx \"
bx _"
bx b"
bx e"
bx h"
bx k"
bx n"
bx q"
bx t"
bx ##
bx 7"
bx <"
bx +"
bx c"
bx *"
bx l"
bx &"
bx o"
bx ("
bx r"
bx !"
bx #"
bx :"
bx ="
bx @"
bx C"
bx H"
bx L"
bx P"
bx T"
bx X"
bx ["
bx ^"
bx a"
bx d"
bx g"
bx j"
bx m"
bx p"
bx s"
bx "#
b10000 f
b10000 ~
b10100 f#
b10100 i#
b11 .
b11 -#
b11 I#
b11 ^#
b11 8
b11 c#
b11 #$
b1001 c
b1001 e#
b1001 "$
14
10
0>
b100 9
b100 ,#
b100 u#
b100 v#
b100 ~#
b0 &
b0 `
b0 *#
b0 s#
b111 %
b111 d
b111 )#
b111 q#
b111 r#
b111 }#
bx Q
bx p
bx (#
bx R
bx t
bx Z#
bx T#
bx S
bx m
bx &#
bx U
bx z
bx Y#
bx W
bx {
bx X#
bx _
bx w
bx S#
b1100 \
b1100 v
b1100 V#
b10000 ]
b10000 u
b10000 U#
b10100 =
b10100 0#
b10100 1#
b10100 Q#
b10100 n#
b10000 ;
b10000 /#
b10000 2#
b10000 R#
b10000 o#
1!
#89000
b11000 <
b11000 a#
b11000 l#
b10100 :
b10100 `#
b10100 g#
b10100 j#
b10100 k#
#96000
0!
