verilog/CPU/dump.vcd
$date
	Wed Feb 05 19:17:15 2025
$end
$version
	Icarus Verilog
$end
$timescale
	1ps
$end
$scope module CPUtb $end
$scope module mycpu $end
$scope module MA $end
$scope module data_memory $end
$var wire 1 ! clk $end
$upscope $end
$upscope $end
$upscope $end
$upscope $end
$scope module CPUtb $end
$scope module mycpu $end
$scope module MA $end
$scope module data_memory $end
$var wire 1 " reset $end
$upscope $end
$upscope $end
$upscope $end
$upscope $end
$scope module CPUtb $end
$scope module mycpu $end
$scope module MA $end
$scope module data_memory $end
$var wire 1 # mem_read $end
$upscope $end
$upscope $end
$upscope $end
$upscope $end
$scope module CPUtb $end
$scope module mycpu $end
$scope module MA $end
$scope module data_memory $end
$var wire 1 $ mem_write $end
$upscope $end
$upscope $end
$upscope $end
$upscope $end
$scope module CPUtb $end
$scope module mycpu $end
$scope module MA $end
$scope module data_memory $end
$var wire 32 % mem_address [31:0] $end
$upscope $end
$upscope $end
$upscope $end
$upscope $end
$scope module CPUtb $end
$scope module mycpu $end
$scope module MA $end
$scope module data_memory $end
$var wire 32 & data_in [31:0] $end
$upscope $end
$upscope $end
$upscope $end
$upscope $end
$scope module CPUtb $end
$scope module mycpu $end
$scope module MA $end
$scope module data_memory $end
$var reg 32 ' data_out [31:0] $end
$upscope $end
$upscope $end
$upscope $end
$upscope $end
$scope module CPUtb $end
$scope module mycpu $end
$scope module MA $end
$scope module data_memory $end
$var reg 1 ( busywait $end
$upscope $end
$upscope $end
$upscope $end
$upscope $end
$scope module CPUtb $end
$var reg 1 ! CLK $end
$var reg 1 ) reset $end
$var integer 32 * i [31:0] $end
$scope module mycpu $end
$var wire 1 ! CLK $end
$var wire 3 + Instruction_func3_ex [2:0] $end
$var wire 1 ) RESET $end
$var wire 5 , destination_reg_ex [4:0] $end
$var wire 1 - mem_read_enable_ex $end
$var wire 1 . mem_write_enable_ex $end
$var wire 1 / mux3_select_ex $end
$var wire 1 0 mux3_select_id $end
$var wire 1 1 regwrite_enable_ex $end
$var wire 1 " reset $end
$var wire 5 2 write_reg_out_if [4:0] $end
$var wire 32 3 write_data_out_if [31:0] $end
$var wire 1 4 regwrite_enable_wb $end
$var wire 1 5 regwrite_enable_ma $end
$var wire 1 6 reg_write_enable_out_if $end
$var wire 1 7 reg_write_enable_id $end
$var wire 32 8 read_data_wb [31:0] $end
$var wire 32 9 read_data_ma [31:0] $end
$var wire 5 : rd_wb [4:0] $end
$var wire 5 ; rd_ma [4:0] $end
$var wire 32 < pc_out_if [31:0] $end
$var wire 32 = pc_out_id [31:0] $end
$var wire 32 > pc4_out_if [31:0] $end
$var wire 32 ? pc4_out_id [31:0] $end
$var wire 1 @ mux3_select_wb $end
$var wire 1 A mux3_select_ma $end
$var wire 1 B mux2_select_id $end
$var wire 1 C mux2_select_ex $end
$var wire 1 D mux1_select_id $end
$var wire 1 E mux1_select_ex $end
$var wire 1 $ mem_write_ma $end
$var wire 1 F mem_write_enable_id $end
$var wire 1 # mem_read_ma $end
$var wire 1 G mem_read_enable_id $end
$var wire 1 H jump_id $end
$var wire 1 I jump_ex $end
$var wire 1 J jal_select_ex $end
$var wire 32 K instruction_out_ip [31:0] $end
$var wire 32 L instruction_out_if [31:0] $end
$var wire 32 M immidiate_value_id [31:0] $end
$var wire 3 N funct3_id [2:0] $end
$var wire 3 O func3_ma [2:0] $end
$var wire 32 P data2_out_ex [31:0] $end
$var wire 32 Q data2_id [31:0] $end
$var wire 32 R data2_ex [31:0] $end
$var wire 32 S data1_id [31:0] $end
$var wire 32 T data1_ex [31:0] $end
$var wire 1 U branch_id $end
$var wire 1 V branch_ex $end
$var wire 1 W branch_control_out_ex $end
$var wire 5 X Rd_id [4:0] $end
$var wire 32 Y PC_ex [31:0] $end
$var wire 32 Z PC4_ex [31:0] $end
$var wire 1 [ JAL_select_id $end
$var wire 32 \ Immediate_ex [31:0] $end
$var wire 32 ] DATA_2_ma [31:0] $end
$var wire 5 ^ ALU_select_ex [4:0] $end
$var wire 32 _ ALU_result_ex [31:0] $end
$var wire 32 ` ALU_out_wb [31:0] $end
$var wire 32 a ALU_out_ma [31:0] $end
$var wire 5 b ALU_opcode_id [4:0] $end
$var wire 32 c ALUD_ex [31:0] $end
$scope module EX $end
$var wire 32 d data2_out [31:0] $end
$var wire 3 e funct3 [2:0] $end
$var wire 3 f funct3_out [2:0] $end
$var wire 1 - memory_read_enable $end
$var wire 1 - memory_read_enable_out $end
$var wire 1 . memory_write_enable $end
$var wire 1 . memory_write_enable_out $end
$var wire 1 / mux3_select $end
$var wire 1 / mux3_select_out $end
$var wire 5 g rd [4:0] $end
$var wire 5 h rd_out [4:0] $end
$var wire 1 1 regwrite_enable $end
$var wire 1 1 regwrite_enable_out $end
$var wire 32 i pc4 [31:0] $end
$var wire 32 j pc [31:0] $end
$var wire 1 C mux2_select $end
$var wire 32 k mux2_out [31:0] $end
$var wire 1 E mux1_select $end
$var wire 32 l mux1_out [31:0] $end
$var wire 1 I jump $end
$var wire 1 J jal_select $end
$var wire 32 m immediate [31:0] $end
$var wire 32 n data2 [31:0] $end
$var wire 32 o data1 [31:0] $end
$var wire 1 W branch_control_out $end
$var wire 1 V branch $end
$var wire 5 p ALU_select [4:0] $end
$var wire 32 q ALU_result [31:0] $end
$var wire 32 r ALUD [31:0] $end
$scope module ALU_unit1 $end
$var wire 32 s data1 [31:0] $end
$var wire 32 t data2 [31:0] $end
$var wire 32 u result06 [31:0] $end
$var wire 32 v result18 [31:0] $end
$var wire 32 w result17 [31:0] $end
$var wire 32 x result16 [31:0] $end
$var wire 32 y result15 [31:0] $end
$var wire 32 z result14 [31:0] $end
$var wire 32 { result13 [31:0] $end
$var wire 32 | result12 [31:0] $end
$var wire 32 } result11 [31:0] $end
$var wire 32 ~ result10 [31:0] $end
$var wire 32 !" result09 [31:0] $end
$var wire 32 "" result08 [31:0] $end
$var wire 32 #" result07 [31:0] $end
$var wire 32 $" result05 [31:0] $end
$var wire 32 %" result04 [31:0] $end
$var wire 32 &" result03 [31:0] $end
$var wire 32 '" result02 [31:0] $end
$var wire 32 (" result01 [31:0] $end
$var wire 32 )" result00 [31:0] $end
$var wire 5 *" Opcode [4:0] $end
$var reg 32 +" result [31:0] $end
$scope module add_unit $end
$var wire 32 ," data1 [31:0] $end
$var wire 32 -" data2 [31:0] $end
$var wire 32 ." result [31:0] $end
$upscope $end
$scope module and_unit $end
$var wire 32 /" data1 [31:0] $end
$var wire 32 0" data2 [31:0] $end
$var wire 32 1" result [31:0] $end
$upscope $end
$scope module div_unit $end
$var wire 32 2" data1 [31:0] $end
$var wire 32 3" data2 [31:0] $end
$var wire 32 4" result [31:0] $end
$upscope $end
$scope module divu_unit $end
$var wire 32 5" data1 [31:0] $end
$var wire 32 6" data2 [31:0] $end
$var wire 32 7" result [31:0] $end
$upscope $end
$scope module forward_unit $end
$var wire 32 8" data2 [31:0] $end
$var wire 32 9" result [31:0] $end
$upscope $end
$scope module mul_unit $end
$var wire 32 :" data1 [31:0] $end
$var wire 32 ;" data2 [31:0] $end
$var wire 32 <" result [31:0] $end
$var reg 65 =" result1 [64:0] $end
$upscope $end
$scope module mulh_unit $end
$var wire 32 >" data1 [31:0] $end
$var wire 32 ?" data2 [31:0] $end
$var wire 32 @" result [31:0] $end
$var reg 65 A" result1 [64:0] $end
$upscope $end
$scope module mulhsu_unit $end
$var wire 32 B" data1 [31:0] $end
$var wire 32 C" data2 [31:0] $end
$var wire 32 D" result [31:0] $end
$var reg 64 E" result1 [63:0] $end
$upscope $end
$scope module mulhu_unit $end
$var wire 32 F" data1 [31:0] $end
$var wire 32 G" data2 [31:0] $end
$var wire 32 H" result [31:0] $end
$var reg 64 I" result1 [63:0] $end
$upscope $end
$scope module or_unit $end
$var wire 32 J" data1 [31:0] $end
$var wire 32 K" data2 [31:0] $end
$var wire 32 L" result [31:0] $end
$upscope $end
$scope module rem_unit $end
$var wire 32 M" data1 [31:0] $end
$var wire 32 N" data2 [31:0] $end
$var wire 32 O" result [31:0] $end
$upscope $end
$scope module remu_unit $end
$var wire 32 P" data1 [31:0] $end
$var wire 32 Q" data2 [31:0] $end
$var wire 32 R" result [31:0] $end
$upscope $end
$scope module sll_unit $end
$var wire 32 S" data1 [31:0] $end
$var wire 32 T" data2 [31:0] $end
$var wire 32 U" result [31:0] $end
$upscope $end
$scope module slt_unit $end
$var wire 32 V" data1 [31:0] $end
$var wire 32 W" data2 [31:0] $end
$var wire 32 X" result [31:0] $end
$upscope $end
$scope module sltu_unit $end
$var wire 32 Y" data1 [31:0] $end
$var wire 32 Z" data2 [31:0] $end
$var wire 32 [" result [31:0] $end
$upscope $end
$scope module sra_unit $end
$var wire 32 \" data1 [31:0] $end
$var wire 32 ]" data2 [31:0] $end
$var wire 32 ^" result [31:0] $end
$upscope $end
$scope module srl_unit $end
$var wire 32 _" data1 [31:0] $end
$var wire 32 `" data2 [31:0] $end
$var wire 32 a" result [31:0] $end
$upscope $end
$scope module sub_unit $end
$var wire 32 b" data1 [31:0] $end
$var wire 32 c" data2 [31:0] $end
$var wire 32 d" result [31:0] $end
$upscope $end
$scope module xor_unit $end
$var wire 32 e" data1 [31:0] $end
$var wire 32 f" data2 [31:0] $end
$var wire 32 g" result [31:0] $end
$upscope $end
$upscope $end
$scope module branch_control1 $end
$var wire 3 h" funct3 [2:0] $end
$var wire 1 I jump $end
$var wire 32 i" data2 [31:0] $end
$var wire 32 j" data1 [31:0] $end
$var wire 1 V branch $end
$var reg 1 W isJumpOrBranch $end
$upscope $end
$upscope $end
$scope module EX_MA $end
$var wire 32 k" ALU_out [31:0] $end
$var wire 1 ! CLK $end
$var wire 32 l" DATA_2 [31:0] $end
$var wire 1 / MUX3_select $end
$var wire 3 m" func_3 [2:0] $end
$var wire 1 - mem_read $end
$var wire 1 . mem_write $end
$var wire 5 n" rd [4:0] $end
$var wire 1 1 regwrite_enable $end
$var reg 32 o" ALU_out_out [31:0] $end
$var reg 32 p" DATA_2_out [31:0] $end
$var reg 1 A MUX3_select_out $end
$var reg 3 q" func_3_out [2:0] $end
$var reg 1 # mem_read_out $end
$var reg 1 $ mem_write_out $end
$var reg 5 r" rd_out [4:0] $end
$var reg 1 5 regwrite_enable_out $end
$upscope $end
$scope module ID $end
$var wire 1 ! clk $end
$var wire 1 ) reset $end
$var wire 1 s" write_enable $end
$var wire 5 t" write_reg [4:0] $end
$var wire 32 u" write_data [31:0] $end
$var wire 1 6 wite_enable $end
$var wire 1 7 reg_write_enable $end
$var wire 32 v" pc_out [31:0] $end
$var wire 32 w" pc4_out [31:0] $end
$var wire 32 x" pc4 [31:0] $end
$var wire 32 y" pc [31:0] $end
$var wire 1 B mux2_select $end
$var wire 1 D mux1_select $end
$var wire 1 F mem_write_enable $end
$var wire 1 G mem_read_enable $end
$var wire 1 H jump $end
$var wire 32 z" instruction [31:0] $end
$var wire 32 {" immidiate_value [31:0] $end
$var wire 3 |" imm_select [2:0] $end
$var wire 3 }" funct3 [2:0] $end
$var wire 32 ~" data2 [31:0] $end
$var wire 32 !# data1 [31:0] $end
$var wire 1 U branch $end
$var wire 5 "# Rd [4:0] $end
$var wire 1 [ JAL_select $end
$var wire 5 ## AlU_opcode [4:0] $end
$scope module control_unit $end
$var wire 7 $# opcode [6:0] $end
$var wire 32 %# instruction [31:0] $end
$var wire 7 &# funct7 [6:0] $end
$var wire 3 '# funct3 [2:0] $end
$var reg 5 (# AlU_opcode [4:0] $end
$var reg 1 U branch $end
$var reg 3 )# imm_select [2:0] $end
$var reg 1 [ jal_select $end
$var reg 1 H jump $end
$var reg 1 G mem_read $end
$var reg 1 F mem_write $end
$var reg 1 D mux1_select $end
$var reg 1 B mux2_select $end
$var reg 1 *# mux3_select $end
$var reg 1 7 regwrite_enable $end
$upscope $end
$scope module immidiate $end
$var wire 3 +# imm_select [2:0] $end
$var wire 32 ,# instruction [31:0] $end
$var reg 32 -# immediate [31:0] $end
$upscope $end
$scope module register_file $end
$var wire 1 .# R $end
$var wire 5 /# addr1 [4:0] $end
$var wire 5 0# addr2 [4:0] $end
$var wire 1 ! clk $end
$var wire 32 1# data1 [31:0] $end
$var wire 32 2# data2 [31:0] $end
$var wire 1 ) reset $end
$var wire 1 s" write_enable $end
$var wire 5 3# write_reg_addr [4:0] $end
$var wire 32 4# reg_write_data [31:0] $end
$upscope $end
$upscope $end
$scope module ID_EX $end
$var wire 1 ! CLK $end
$var wire 32 5# Immediate [31:0] $end
$var wire 3 6# Instruction_func3 [2:0] $end
$var wire 5 7# alu_select [4:0] $end
$var wire 1 U branch $end
$var wire 32 8# data1 [31:0] $end
$var wire 32 9# data2 [31:0] $end
$var wire 5 :# destination_reg [4:0] $end
$var wire 1 [ jal_select $end
$var wire 1 H jump $end
$var wire 1 G mem_read $end
$var wire 1 F mem_write $end
$var wire 1 D mux1_select $end
$var wire 1 B mux2_select $end
$var wire 1 0 mux3_select $end
$var wire 1 7 regwrite_enable $end
$var wire 32 ;# PC4 [31:0] $end
$var wire 32 <# PC [31:0] $end
$var reg 32 =# Immediate_out [31:0] $end
$var reg 3 ># Instruction_func3_out [2:0] $end
$var reg 32 ?# PC4_out [31:0] $end
$var reg 32 @# PC_out [31:0] $end
$var reg 5 A# alu_select_out [4:0] $end
$var reg 1 V branch_out $end
$var reg 32 B# data1_out [31:0] $end
$var reg 32 C# data2_out [31:0] $end
$var reg 5 D# destination_reg_out [4:0] $end
$var reg 1 J jal_select_out $end
$var reg 1 I jump_out $end
$var reg 1 E# mem_read_out $end
$var reg 1 F# mem_write_out $end
$var reg 1 E mux1_select_out $end
$var reg 1 C mux2_select_out $end
$var reg 1 G# mux3_select_out $end
$var reg 1 H# regwrite_enable_out $end
$upscope $end
$scope module IF $end
$var wire 1 ! CLK $end
$var wire 1 ) RESET $end
$var wire 32 I# branch_address [31:0] $end
$var wire 1 W branch_control $end
$var wire 1 6 reg_write_enable_out $end
$var wire 5 J# write_reg_out [4:0] $end
$var wire 32 K# write_data_out [31:0] $end
$var wire 1 4 reg_write_enable $end
$var wire 32 L# pc_out [31:0] $end
$var wire 32 M# pc4_out [31:0] $end
$var wire 1 @ mux3_select $end
$var wire 32 N# instruction_out [31:0] $end
$var wire 5 O# Rd [4:0] $end
$var wire 32 P# MEMD [31:0] $end
$var wire 32 Q# ALUD [31:0] $end
$var reg 32 R# pc_input [31:0] $end
$scope module instruction_memory1 $end
$var wire 1 ! clk $end
$var wire 1 ) reset $end
$var wire 32 S# PC [31:0] $end
$var reg 32 T# instruction [31:0] $end
$upscope $end
$scope module pc1 $end
$var wire 1 ! CLK $end
$var wire 1 ) RESET $end
$var wire 32 U# pc_in [31:0] $end
$var reg 32 V# pc [31:0] $end
$upscope $end
$upscope $end
$scope module IF_ID $end
$var wire 1 ! CLK $end
$var wire 32 W# PC [31:0] $end
$var wire 32 X# PC4 [31:0] $end
$var wire 32 Y# instruction [31:0] $end
$var reg 32 Z# PC4_out [31:0] $end
$var reg 32 [# PC_out [31:0] $end
$var reg 32 \# instruction_out [31:0] $end
$upscope $end
$scope module MA $end
$var wire 32 ]# alud [31:0] $end
$var wire 32 ^# alud_out [31:0] $end
$var wire 1 ! clk $end
$var wire 32 _# data2 [31:0] $end
$var wire 3 `# func3 [2:0] $end
$var wire 1 # mem_read $end
$var wire 1 $ mem_write $end
$var wire 1 A mux3_select $end
$var wire 1 A mux3_select_out $end
$var wire 5 a# rd [4:0] $end
$var wire 5 b# rd_out [4:0] $end
$var wire 1 5 regwrite_enable $end
$var wire 1 5 regwrite_enable_out $end
$var wire 1 " reset $end
$var wire 32 c# read_data [31:0] $end
$scope module data_memory $end
$var wire 3 d# func3 [2:0] $end
$var reg 1 e# mem_read_access $end
$var reg 1 f# mem_write_access $end
$var integer 32 g# i [31:0] $end
$scope task dump_memory $end
$var integer 32 h# j [31:0] $end
$upscope $end
$upscope $end
$upscope $end
$scope module MA_WB $end
$var wire 32 i# ALU_out [31:0] $end
$var wire 1 ! CLK $end
$var wire 1 A MUX3_select $end
$var wire 5 j# rd [4:0] $end
$var wire 32 k# read_data [31:0] $end
$var wire 1 5 regwrite_enable $end
$var reg 32 l# ALU_out_out [31:0] $end
$var reg 1 @ MUX3_select_out $end
$var reg 5 m# rd_out [4:0] $end
$var reg 32 n# read_data_out [31:0] $end
$var reg 1 4 regwrite_enable_out $end
$upscope $end
$upscope $end
$upscope $end
$scope module CPUtb $end
$scope module mycpu $end
$scope module ID $end
$scope module register_file $end
$var reg 32 o# \register[0] [31:0] $end
$upscope $end
$upscope $end
$upscope $end
$upscope $end
$scope module CPUtb $end
$scope module mycpu $end
$scope module ID $end
$scope module register_file $end
$var reg 32 p# \register[1] [31:0] $end
$upscope $end
$upscope $end
$upscope $end
$upscope $end
$scope module CPUtb $end
$scope module mycpu $end
$scope module ID $end
$scope module register_file $end
$var reg 32 q# \register[2] [31:0] $end
$upscope $end
$upscope $end
$upscope $end
$upscope $end
$scope module CPUtb $end
$scope module mycpu $end
$scope module ID $end
$scope module register_file $end
$var reg 32 r# \register[3] [31:0] $end
$upscope $end
$upscope $end
$upscope $end
$upscope $end
$scope module CPUtb $end
$scope module mycpu $end
$scope module ID $end
$scope module register_file $end
$var reg 32 s# \register[4] [31:0] $end
$upscope $end
$upscope $end
$upscope $end
$upscope $end
$scope module CPUtb $end
$scope module mycpu $end
$scope module ID $end
$scope module register_file $end
$var reg 32 t# \register[5] [31:0] $end
$upscope $end
$upscope $end
$upscope $end
$upscope $end
$scope module CPUtb $end
$scope module mycpu $end
$scope module ID $end
$scope module register_file $end
$var reg 32 u# \register[6] [31:0] $end
$upscope $end
$upscope $end
$upscope $end
$upscope $end
$scope module CPUtb $end
$scope module mycpu $end
$scope module ID $end
$scope module register_file $end
$var reg 32 v# \register[7] [31:0] $end
$upscope $end
$upscope $end
$upscope $end
$upscope $end
$enddefinitions $end
$comment Show the parameter values. $end
$dumpall
$end
#0
$dumpvars
bx v#
bx u#
bx t#
bx s#
bx r#
bx q#
bx p#
bx o#
bx n#
bx m#
bx l#
bx k#
bx j#
bx i#
bx h#
bx g#
xf#
xe#
bx d#
bx c#
bx b#
bx a#
bx `#
bx _#
bx ^#
bx ]#
bx \#
bx [#
bx Z#
bx Y#
bx X#
bx W#
bx V#
bx U#
bx T#
bx S#
bx R#
bx Q#
bx P#
bx O#
bx N#
bx M#
bx L#
bx K#
bx J#
bx I#
xH#
xG#
xF#
xE#
bx D#
bx C#
bx B#
bx A#
bx @#
bx ?#
bx >#
bx =#
bx <#
bx ;#
bx :#
bx 9#
bx 8#
bx 7#
bx 6#
bx 5#
bx 4#
bx 3#
bx 2#
bx 1#
bx 0#
bx /#
z.#
bx -#
bx ,#
bx +#
x*#
bx )#
bx (#
bx '#
bx &#
bx %#
bx $#
bx ##
bx "#
bx !#
bx ~"
bx }"
bx |"
bx {"
bx z"
bx y"
bx x"
bx w"
bx v"
bx u"
bx t"
zs"
bx r"
bx q"
bx p"
bx o"
bx n"
bx m"
bx l"
bx k"
bx j"
bx i"
bx h"
bx g"
bx f"
bx e"
bx d"
bx c"
bx b"
bx a"
bx `"
bx _"
bx ^"
bx ]"
bx \"
b0x ["
bx Z"
bx Y"
b0x X"
bx W"
bx V"
bx U"
bx T"
bx S"
bx R"
bx Q"
bx P"
bx O"
bx N"
bx M"
bx L"
bx K"
bx J"
bx I"
bx H"
bx G"
bx F"
bx E"
bx D"
bx C"
bx B"
bx A"
bx @"
bx ?"
bx >"
bx ="
bx <"
bx ;"
bx :"
bx 9"
bx 8"
bx 7"
bx 6"
bx 5"
bx 4"
bx 3"
bx 2"
bx 1"
bx 0"
bx /"
bx ."
bx -"
bx ,"
bx +"
bx *"
bx )"
bx ("
bx '"
bx &"
bx %"
bx $"
bx #"
bx ""
bx !"
bx ~
bx }
bx |
bx {
bx z
b0x y
bx x
b0x w
bx v
bx u
bx t
bx s
bx r
bx q
bx p
bx o
bx n
bx m
bx l
bx k
bx j
bx i
bx h
bx g
bx f
bx e
bx d
bx c
bx b
bx a
bx `
bx _
bx ^
bx ]
bx \
x[
bx Z
bx Y
bx X
xW
xV
xU
bx T
bx S
bx R
bx Q
bx P
bx O
bx N
bx M
bx L
bx K
xJ
xI
xH
xG
xF
xE
xD
xC
xB
xA
x@
bx ?
bx >
bx =
bx <
bx ;
bx :
bx 9
bx 8
x7
x6
x5
x4
bx 3
bx 2
x1
z0
x/
x.
x-
bx ,
bx +
b1000 *
1)
x(
bx '
bx &
bx %
x$
x#
z"
0!
$end
#8000
zG#
b0 R#
b0 U#
b0 v#
b0 u#
b0 t#
b0 s#
b0 r#
b0 q#
b0 p#
b0 o#
1!
#9000
b100 >
b100 M#
b100 X#
b0 <
b0 L#
b0 S#
b0 V#
b0 W#
0)
#16000
0!
#24000
b100 R#
b100 U#
b1000001000000110110011 L
b1000001000000110110011 N#
b1000001000000110110011 T#
b1000001000000110110011 Y#
b100 ?
b100 w"
b100 x"
b100 ;#
b100 Z#
b0 =
b0 v"
b0 y"
b0 <#
b0 [#
1!
#25000
b1000 >
b1000 M#
b1000 X#
b100 <
b100 L#
b100 S#
b100 V#
b100 W#
#32000
0!
#40000
b10 M
b10 {"
b10 -#
b10 5#
b0 b
b0 ##
b0 (#
b0 7#
b0 |"
b0 )#
b0 +#
0[
0H
0U
0F
0G
17
0*#
0B
0D
b0 &#
b0 '#
b110011 $#
b11 X
b11 "#
b11 :#
b0 N
b0 }"
b0 6#
b0 Q
b0 ~"
b0 2#
b0 9#
b10 0#
b0 S
b0 !#
b0 1#
b0 8#
b1 /#
b1000 ?
b1000 w"
b1000 x"
b1000 ;#
b1000 Z#
b100 =
b100 v"
b100 y"
b100 <#
b100 [#
b1000001000000110110011 K
b1000001000000110110011 z"
b1000001000000110110011 %#
b1000001000000110110011 ,#
b1000001000000110110011 \#
b0 Y
b0 j
b0 @#
b100 Z
b100 i
b100 ?#
b1000000001000001000001000110011 L
b1000000001000001000001000110011 N#
b1000000001000001000001000110011 T#
b1000000001000001000001000110011 Y#
b1000 R#
b1000 U#
1!
#41000
b1100 >
b1100 M#
b1100 X#
b1000 <
b1000 L#
b1000 S#
b1000 V#
b1000 W#
#48000
0!
#56000
b0 #"
b0 D"
b0 $"
b0 @"
b0 %"
b0 <"
b0 y
b0 X"
b0 w
b0 ["
b100 _
b100 q
b100 +"
b100 k"
b100 I#
b0 '"
b0 1"
b0 E"
b0 I"
b0 A"
b0 ="
b100 &"
b100 L"
b100 ("
b100 g"
b10000 b
b10000 ##
b10000 (#
b10000 7#
b100 )"
b100 ."
b0 |
b0 9"
b100 {
b100 U"
b100 z
b100 ^"
b100 v
b100 a"
b100 x
b100 d"
b0 k
b0 t
b0 -"
b0 0"
b0 3"
b0 6"
b0 8"
b0 ;"
b0 ?"
b0 C"
b0 G"
b0 K"
b0 N"
b0 Q"
b0 T"
b0 W"
b0 Z"
b0 ]"
b0 `"
b0 c"
b0 f"
b100 l
b100 s
b100 ,"
b100 /"
b100 2"
b100 5"
b100 :"
b100 >"
b100 B"
b100 F"
b100 J"
b100 M"
b100 P"
b100 S"
b100 V"
b100 Y"
b100 \"
b100 _"
b100 b"
b100 e"
b1000 c
b1000 r
0W
b100000 &#
b100 X
b100 "#
b100 :#
b10000000010 M
b10000000010 {"
b10000000010 -#
b10000000010 5#
b1100 R#
b1100 U#
b1100000010000000100011 L
b1100000010000000100011 N#
b1100000010000000100011 T#
b1100000010000000100011 Y#
b11 D#
b0 >#
b0 P
b0 d
b0 l"
b0 R
b0 n
b0 i"
b0 C#
b0 T
b0 o
b0 j"
b0 B#
b10 \
b10 m
b10 =#
b100 Y
b100 j
b100 @#
b1000 Z
b1000 i
b1000 ?#
0J
0I
0V
0F#
0E#
1H#
0C
0E
b0 ^
b0 p
b0 *"
b0 A#
b1100 ?
b1100 w"
b1100 x"
b1100 ;#
b1100 Z#
b1000 =
b1000 v"
b1000 y"
b1000 <#
b1000 [#
b1000000001000001000001000110011 K
b1000000001000001000001000110011 z"
b1000000001000001000001000110011 %#
b1000000001000001000001000110011 ,#
b1000000001000001000001000110011 \#
1!
#57000
b10000 >
b10000 M#
b10000 X#
b1100 <
b1100 L#
b1100 S#
b1100 V#
b1100 W#
#64000
0!
#72000
b1000 &"
b1000 L"
b1000 _
b1000 q
b1000 +"
b1000 k"
b1000 I#
b1000 ("
b1000 g"
b0 &#
b10 '#
b100011 $#
b0 X
b0 "#
b0 :#
b10 N
b10 }"
b10 6#
b11 0#
b0 /#
b11 M
b11 {"
b11 -#
b11 5#
b1000 )"
b1000 ."
b1000 {
b1000 U"
b1000 z
b1000 ^"
b1000 v
b1000 a"
b1000 x
b1000 d"
b1000 l
b1000 s
b1000 ,"
b1000 /"
b1000 2"
b1000 5"
b1000 :"
b1000 >"
b1000 B"
b1000 F"
b1000 J"
b1000 M"
b1000 P"
b1000 S"
b1000 V"
b1000 Y"
b1000 \"
b1000 _"
b1000 b"
b1000 e"
b1100 c
b1100 r
b10000 ?
b10000 w"
b10000 x"
b10000 ;#
b10000 Z#
b1100 =
b1100 v"
b1100 y"
b1100 <#
b1100 [#
b1100000010000000100011 K
b1100000010000000100011 z"
b1100000010000000100011 %#
b1100000010000000100011 ,#
b1100000010000000100011 \#
b100 D#
b10000000010 \
b10000000010 m
b10000000010 =#
b1000 Y
b1000 j
b1000 @#
b1100 Z
b1100 i
b1100 ?#
b10000 ^
b10000 p
b10000 *"
b10000 A#
b0 &
b0 ]
b0 p"
b0 _#
b100 %
b100 a
b100 o"
b100 ]#
b100 ^#
b100 i#
b10000000010001000100011 L
b10000000010001000100011 N#
b10000000010001000100011 T#
b10000000010001000100011 Y#
b10000 R#
b10000 U#
1!
#73000
b10100 >
b10100 M#
b10100 X#
b10000 <
b10000 L#
b10000 S#
b10000 V#
b10000 W#
#80000
0!
#88000
b1100 &"
b1100 L"
b1100 _
b1100 q
b1100 +"
b1100 k"
b1100 I#
b1100 ("
b1100 g"
b1100 )"
b1100 ."
b1100 {
b1100 U"
b1100 z
b1100 ^"
b1100 v
b1100 a"
b1100 x
b1100 d"
b1100 l
b1100 s
b1100 ,"
b1100 /"
b1100 2"
b1100 5"
b1100 :"
b1100 >"
b1100 B"
b1100 F"
b1100 J"
b1100 M"
b1100 P"
b1100 S"
b1100 V"
b1100 Y"
b1100 \"
b1100 _"
b1100 b"
b1100 e"
b10000 c
b10000 r
b100 X
b100 "#
b100 :#
b100 0#
b100 M
b100 {"
b100 -#
b100 5#
b10100 R#
b10100 U#
b10001010000011 L
b10001010000011 N#
b10001010000011 T#
b10001010000011 Y#
b100 `
b100 Q#
b100 l#
b1000 %
b1000 a
b1000 o"
b1000 ]#
b1000 ^#
b1000 i#
b0 D#
b10 >#
b11 \
b11 m
b11 =#
b1100 Y
b1100 j
b1100 @#
b10000 Z
b10000 i
b10000 ?#
b10100 ?
b10100 w"
b10100 x"
b10100 ;#
b10100 Z#
b10000 =
b10000 v"
b10000 y"
b10000 <#
b10000 [#
b10000000010001000100011 K
b10000000010001000100011 z"
b10000000010001000100011 %#
b10000000010001000100011 ,#
b10000000010001000100011 \#
1!
#89000
b11000 >
b11000 M#
b11000 X#
b10100 <
b10100 L#
b10100 S#
b10100 V#
b10100 W#
#96000
0!
#104000
b10000 &"
b10000 L"
b10000 _
b10000 q
b10000 +"
b10000 k"
b10000 I#
b10000 ("
b10000 g"
b11 $#
b101 X
b101 "#
b101 :#
b0 0#
b0 M
b0 {"
b0 -#
b0 5#
b10000 )"
b10000 ."
b10000 {
b10000 U"
b10000 z
b10000 ^"
b10000 v
b10000 a"
b10000 x
b10000 d"
b10000 l
b10000 s
b10000 ,"
b10000 /"
b10000 2"
b10000 5"
b10000 :"
b10000 >"
b10000 B"
b10000 F"
b10000 J"
b10000 M"
b10000 P"
b10000 S"
b10000 V"
b10000 Y"
b10000 \"
b10000 _"
b10000 b"
b10000 e"
b10100 c
b10100 r
b11000 ?
b11000 w"
b11000 x"
b11000 ;#
b11000 Z#
b10100 =
b10100 v"
b10100 y"
b10100 <#
b10100 [#
b10001010000011 K
b10001010000011 z"
b10001010000011 %#
b10001010000011 ,#
b10001010000011 \#
b100 D#
b100 \
b100 m
b100 =#
b10000 Y
b10000 j
b10000 @#
b10100 Z
b10100 i
b10100 ?#
b1100 %
b1100 a
b1100 o"
b1100 ]#
b1100 ^#
b1100 i#
b1000 `
b1000 Q#
b1000 l#
b10000000010001100000011 L
b10000000010001100000011 N#
b10000000010001100000011 T#
b10000000010001100000011 Y#
b11000 R#
b11000 U#
1!
#105000
b11100 >
b11100 M#
b11100 X#
b11000 <
b11000 L#
b11000 S#
b11000 V#
b11000 W#
#112000
0!
